# $FreeBSD: da3fe09f6100fd808a91900ea4731cd17520bd02 $
begin 644 iso02-8x16
M````````````````````````````````````````````````````````````
M````````````````````````````````````````````````````````````
M````````````````````````````````````````````````````````````
M````````````````````````````````````````````````````````````
M````````````````````````````````````````````````````````````
M````````````````````````````````````````````````````````````
M````````````````````````````````````````````````````````````
M````````````````````````````````````````````````````````````
M````````````````````````````````````````````````````````````
M````````````````````````````````````````````````````````````
M````````````````````````````````````````````````````````````
M```````````````````````````````````````````````8/#P\&!@8`!@8
M``````!F9F8D``````````````````!L;/YL;&S^;&P`````&!A\QL+`?`8&
MAL9\&!@```````#"Q@P8,&#&A@```````#AL;#AVW,S,S'8``````!@8&#``
M````````````````#!@P,#`P,#`8#````````#`8#`P,#`P,&#``````````
M``!F//\\9@``````````````&!A^&!@````````````````````8&!@P````
M`````````/X````````````````````````8&````````````@8,&#!@P(``
M```````X;,;&UM;&QFPX````````&#AX&!@8&!@8?@```````'S&!@P8,&#`
MQOX```````!\Q@8&/`8&!L9\````````#!P\;,S^#`P,'@```````/[`P,#\
M!@8&QGP````````X8,#`_,;&QL9\````````_L8&#!@P,#`P,````````'S&
MQL9\QL;&QGP```````!\QL;&?@8&!@QX```````````8&````!@8````````
M````&!@````8&#``````````!@P8,&`P&`P&````````````?@``?@``````
M``````!@,!@,!@P8,&````````!\QL8,&!@8`!@8`````````'S&QM[>WMS`
M?````````!`X;,;&_L;&QL8```````#\9F9F?&9F9F;\````````/&;"P,#`
MP,)F/````````/AL9F9F9F9F;/@```````#^9F)H>&A@8F;^````````_F9B
M:'AH8&!@\````````#QFPL#`WL;&9CH```````#&QL;&_L;&QL;&````````
M/!@8&!@8&!@8/````````!X,#`P,#,S,S'@```````#F9F9L>'AL9F;F````
M````\&!@8&!@8&)F_@```````,;N_O[6QL;&QL8```````#&YO;^WL[&QL;&
M````````?,;&QL;&QL;&?````````/QF9F9\8&!@8/````````!\QL;&QL;&
MUMY\#`X`````_&9F9GQL9F9FY@```````'S&QF`X#`;&QGP```````!^?EH8
M&!@8&!@\````````QL;&QL;&QL;&?````````,;&QL;&QL9L.!````````#&
MQL;&UM;6_NYL````````QL9L?#@X?&S&Q@```````&9F9F8\&!@8&#P`````
M``#^QH8,&#!@PL;^````````/#`P,#`P,#`P/`````````"`P.!P.!P.!@(`
M```````\#`P,#`P,#`P\`````!`X;,8`````````````````````````````
M````_P``,#`8````````````````````````>`Q\S,S,=@```````.!@8'AL
M9F9F9GP```````````!\QL#`P,9\````````'`P,/&S,S,S,=@``````````
M`'S&_L#`QGP````````<-C(P>#`P,#!X````````````=LS,S,S,?`S,>```
M`.!@8&QV9F9F9N8````````8&``X&!@8&!@\````````!@8`#@8&!@8&!F9F
M/````.!@8&9L>'AL9N8````````X&!@8&!@8&!@\````````````[/[6UM;6
MQ@```````````-QF9F9F9F8```````````!\QL;&QL9\````````````W&9F
M9F9F?&!@\````````';,S,S,S'P,#!X```````#<=F9@8&#P````````````
M?,9@.`S&?````````!`P,/PP,#`P-AP```````````#,S,S,S,QV````````
M````S,S,S,QX,````````````,;&UM;6_FP```````````#&;#@X.&S&````
M````````QL;&QL;&?@8,^````````/[,&#!@QOX````````.&!@8<!@8&!@.
M````````&!@8&``8&!@8&````````'`8&!@.&!@8&'````````!VW```````
M````````````````````````````````````````````````````````````
M````````````````````````````````````````````````````````````
M````````````````````````````````````````````````````````````
M````````````````````````````````````````````````````````````
M````````````````````````````````````````````````````````````
M````````````````````````````````````````````````````````````
M````````````````````````````````````````````````````````````
M````````````````````````````````````````````````````````````
M````````````````````````````````````````````````````````````
M````````````````````````````````````````````````````````````
M````````````````````````````````````````````````````````````
M````````````````````````````````````````````````````````````
M`````````````````!`X;,;&_L;&QL88,!X``,9\````````````````````
M\&1L>'#@X&)F_@``````````QGS&QL9\Q@```````!ON8&!@8&!@8F;^````
M``P8`'S&QF`X#,;&?```````?,9@.&S&QFPX#,9\`````&QL````````````
M`````&PX`'S&QF`X#,;&?````````'S&QF`X#`;&QGP8#'@`-AP`?GY:&!@8
M&!@\``````P8`/[&C!@P8,+&_@``````````````?@``````````;#@`_L:,
M&#!@PL;^`````!@8`/[&C!@P8,+&_@``````.&QL.```````````````````
M``!X#'S,S,QV&#`>`````````````````#!@/````#@:'AP8.'A8&#P`````
M``P8,``````````````````;[F!@8&!@8&!@\```````#!@P`'S&8#@,QGP`
M`````&PX`````````````````````````````````!@,>````&PX`'S&8#@,
MQGP```````````!\QF`X#,9\&`QX`&PX`!`P,/PP,#`V'```````#!@P`/[,
M&#!@QOX``````#9LV```````````````````;#@`_LP8,&#&_@```````!@8
M`/[,&#!@QOX`````#!@`_&9F9GQL9F;F``````P8`!`X;,;&_L;&Q@`````X
M;``0.&S&QO[&QL8`````QGP`$#ALQL;^QL;&``````#&`!`X;,;&_L;&Q@``
M`````/9L8&!@8&!B9OX`````#!@`/&;"P,#`PF8\````````/&;"P,#`P,)F
M/`P&?`!L.``\9L+`P,#"9CP`````#!@`_F9B8'A@8F;^````````_F9B:'AH
M8&)F_A@P'@``Q@#^9F)H>&AB9OX`````;#@`_F9B:'AH8F;^``````P8`#P8
M&!@8&!@8/``````<-@`\&!@8&!@8&#P`````;#@`^&QF9F9F9FSX````````
M^&QF9O9F9F9L^``````,&`#&YO;^WL[&QL8`````;#@`QN;V_M[.QL;&````
M``P8`'S&QL;&QL;&?``````X;`!\QL;&QL;&QGP`````-FP`?,;&QL;&QL9\
M``````#&`'S&QL;&QL;&?````````````,9L.&S&````````;#@`_&9F9GQL
M9F;F`````#AL.,;&QL;&QL;&?``````,&`#&QL;&QL;&QGP`````-FP`QL;&
MQL;&QL9\``````#&`,;&QL;&QL;&?``````,&`!F9F9F/!@8&#P```````!^
M?EH8&!@8&!@\&`QX````>,S,S-C,QL;&S```````#!@P`-QV9F!@8/``````
M``P8,`!X#'S,S,QV```````0.&P`>`Q\S,S,=@```````,9\`'@,?,S,S'8`
M``````#,``!X#'S,S,QV````````YFQ@8&!@8&!@\```````#!@P`'S&P,#`
MQGP```````````!\QL#`P,9\&`QX````;#@`?,;`P,#&?```````#!@P`'S&
M_L#`QGP```````````!\QO[`P,9\,&`\````Q@``?,;^P,#&?````````&PX
M`'S&_L#`QGP```````P8,``X&!@8&!@\```````0.&P`.!@8&!@8/`````!L
M.``<#`P\;,S,S'8````````,#'X,/&S,S,QV```````,&#``W&9F9F9F9@``
M`````&PX`-QF9F9F9F8```````P8,`!\QL;&QL9\```````0.&P`?,;&QL;&
M?````````#9L`'S&QL;&QGP```````#&``!\QL;&QL9\```````````8&`!^
M`!@8`````````&PX`-QV9F!@8/```````#AL.`#,S,S,S,QV```````,&#``
MS,S,S,S,=@```````#9L`,S,S,S,S'8```````#,``#,S,S,S,QV```````,
M&#``QL;&QL;&?@8,^````!`P,/PP,#`P-AP8#'@``!@8````````````````
!````
`
end
