# $FreeBSD: 8d9fdc6bb50717b2d2bed64ee37a2baa5ac8baf8 $
begin 644 iso04-8x8
M````````````````````````````````````````````````````````````
M````````````````````````````````````````````````````````````
M````````````````````````````````````````````````````````````
M````````````````````````````````````````````````````````````
M````````````````````````````````````````````````````````````
M`````````````````````````````````````````````````````!@\/!@8
M`!@`[F;,``````!L_FQL;/YL&'[;V'X;VWX``,;,&#!FQ@`X;#I^S,QV`#@8
M<```````#!@P,#`8#``P&`P,#!@P``!L./XX;````!@8?A@8````````.!AP
M`````/X````````````8&``&#!@8,&#``'S&SM;FQGP`&'@8&!@8?@!\QHPX
M8,+^`'S&!CP&QGP`'#QLS/X,'@#^P/P&!L9\`'S&P/S&QGP`_L8&#!@P,`!\
MQL9\QL9\`'S&QGX&QGP``!@8`!@8````&!@`&!AP```8,&`P&`````#^`/X`
M````,!@,&#```'S&S!@8`!@`?,;&WMS`?@`X;,;&_L;&`/QF9GQF9OP`/&;"
MP,)F/`#X;&9F9FSX`/YF8'Q@9OX`_F9@?&!@\`!\QL#.QL9\`,;&QO[&QL8`
M/!@8&!@8/``\&!@8V-AP`,;,V/#8S,8`\&!@8&)F_@#&QN[^UL;&`,;F]M[.
MQL8`?,;&QL;&?`#\9F9\8&#P`'S&QM;6?`8`_&9F?'AFY@!\QL!\!L9\`/_;
MF1@8&#P`QL;&QL;&?`#&QL;&;#@0`,;&UM;^[FP`QL9L.&S&Q@!F9F8\&!@\
M`/[&C#ABQOX`?&!@8&!@?`#`8#`P&`P&`'P,#`P,#'P`.&S&````````````
M``#_`#@P&`````````!X#'S,=@#@8'QF9F;\````>,S`S'@`#@Q\S,S,?@``
M`'S&_L!\`!PV,/PP,'@``';,S'P,^```X&!\9F;F&!@`.!@8&#P,#``<#`S,
M>`#@8&9L>&SF`#@8&!@8&#P```#L_M;6Q@```-QF9F9F````?,;&QGP``-QF
M9GQ@\```=LS,?`X.````W&9@8/````!\P'P&_``P,/PP,#8<````S,S,S'8`
M``#&QFPX$````,;6UOYL````QFPX;,8```#,S'P,^````/Z,.&+^``X8&'`8
M&`X8&!@8&!@8&`!P&!@.&!AP`';<````````````````````````````````
M````````````````````````````````````````````````````````````
M````````````````````````````````````````````````````````````
M````````````````````````````````````````````````````````````
M````````````````````````````````````````````````````````````
M````````````````````````````````````````````````````````````
M``````````````````````````````````#&_CALQO[&SA@.````YFQX;.;\
M9GYL9N88<`!"/&9F/$(`=MPX&!@8&#SP8&!B9OX8<#QF.&QL.,QX9@``````
M``!L.'S`?`;&?'P`_F!\8&;^/&;`SF8^&'``_YD>/'@8/```````/```;#C^
MC!@R9OY\`````````#AL;#@```````!X#'S,=@\````````0'```W'9F\##@
M&#``````````=MP`.!@8/#@8&!@8/!AP;#@````````````````$'`!L.'S`
M?`;\`'P`?,;^P'PX8#!^S'P,^``P,/PP.'8<`-S^]L;&QMQL.`#^C#AB_@``
MW/[VQ@8<?`!\QL;^QL8,&'S&QO[&QGR"?,;&_L;&QGQ\QL;^QL;&.&S&QO[&
MQCAL.&S&_L;&`#YXV/[8V-YX,#`P,'@P'&PX?,;`P,9\#AC^8GA@9O[^9F!X
M8&;^'&S^9F!\8&;^&/YF8'Q@9OX,&#P8&!@8/#Q"/!@8&!@\/``\&!@8&#P`
M^&QF]O9L^,;F]M[.Q@PX?`!\QL;&QGS&S/C8S,8,.'R"?,;&QL9\=MQ\QL;&
MQGS&?,;&QL;&?```QFPX;,8``W[.WM;VYOS&QL;&QGPP'APPQL;&QL9\.&P`
MQL;&QGS&`,;&QL;&?';<`,;&QL9\?`#&QL;&QGP`?,;\QL;\P`!\`'@,?,QV
M#!@@>`Q\S'8`>(1X#'S,=FPX`'@,?,QV`,P`>`Q\S'8`.&QX#'S,=@```&X[
M?MA^&``X&!@\&`X`S'AXS,#,>`P8`'S&_L!\``!\QO[`>AX`;`!\QO[`?``X
M`'S&_L!\#!@@.!@8&#P`/$(X&!@8/``\`#@8&!@\``P^#'S,S'8``-SFQL88
M<`!\`'S&QL9\`.!F;'ALYAQ\Q@!\QL;&?';<`'S&QL9\`&P`?,;&QGP``!@`
M?@`8```&?,[6YGS```#,S,Q^,!P,&"#,S,S,=GC,`,S,S,QV`,P`S,S,S'9V
7W`#,S,S,=@!X`,S,S,QV&```````````
`
end
