# $FreeBSD: 1cb4d678b25f161416c41e719f0634d226d7e774 $
begin 644 iso15-thin-8x16
M````````````````````````````````````````````````````````````
M````````````````````````````````````````````````````````````
M````````````````````````````````````````````````````````````
M````````````````````````````````````````````````````````````
M````````````````````````````````````````````````````````````
M````````````````````````````````````````````````````````````
M````````````````````````````````````````````````````````````
M````````````````````````````````````````````````````````````
M````````````````````````````````````````````````````````````
M````````````````````````````````````````````````````````````
M````````````````````````````````````````````````````````````
M```````````````````````````````````````````````0$!`0$!`0```0
M$```````)"0D)````````````````"0D)'XD)"1^)"0D```````(/TA(2#X)
M"0E^"````````#!),@0($"9)!@`````````8)"08)2(B(AT``````!@("!``
M````````````````!`@0$!`0$!`(!````````!`(!`0$!`0$"!``````````
M```D&'X8)`````````````@("'\("`@``````````````````````!@8"!``
M````````?@`````````````````````````8&``````````!`@0($"!`@```
M```````8)$)"0D)"0B08````````"!@("`@("`@('````````#Q"`@($"!`@
M0'X````````\0@("'`("`D(\`````````@8*$B)"?P("`@```````'Y`0$!\
M`@("0CP````````\0$!`?$)"0D(\````````?@("!`0("!`0$````````#Q"
M0D(\0D)"0CP````````\0D)"0CX"`@(\````````````&!@``!@8````````
M```````8&````!@("!``````!`@0($`@$`@$````````````?@``?@``````
M```````@$`@$`@0($"`````````\0@("!`@0```0$````````!PB25555DP@
M'@```````#Q"0D)"?D)"0D(```````!\0D)"?$)"0D)\````````/$)`0$!`
M0$!"/````````'A$0D)"0D)"1'@```````!^0$!`?$!`0$!^````````?D!`
M0'Q`0$!`0````````#Y`0$!.0D)"0CX```````!"0D)"?D)"0D)"````````
M'`@("`@("`@('`````````X"`@("`@)"0CP```````!"1$A08&!02$1"````
M````0$!`0$!`0$!`?@```````$%C54E!04%!04$```````!"8E)22DI&0D)"
M````````/$)"0D)"0D)"/````````'Q"0D)"?$!`0$`````````\0D)"0D)"
M0DH\!`(`````?$)"0D)\4$A$0@```````#Q"0$`\`@("0CP```````!_"`@(
M"`@("`@(````````0D)"0D)"0D)"/````````$%!04%!(B(4%`@```````!!
M04%!04%)56-!````````04$B%`@(%")!00```````$%!02(4"`@("`@`````
M``!^`@($"!`@0$!^````````/"`@("`@("`@/`````````"`0"`0"`0"`0``
M```````\!`0$!`0$!`0\````````"!0B````````````````````````````
M`````/\``!@0$`@`````````````````````/$("/D)"/0```````$!`0'Q"
M0D)"0GP````````````\0D!`0$(\`````````@("/D)"0D)"/@``````````
M`#Q"0GY`0CP````````.$!!^$!`0$!`0````````````/D)"0D)"/@("/```
M`$!`0'Q"0D)"0D(````````("``X"`@("`@(`````````@(`#@("`@("`@)"
M/````$!`0$)$2'!(1$(```````!P$!`0$!`0$!`0````````````=DE)24E)
M20```````````'Q"0D)"0D(````````````\0D)"0D(\````````````?$)"
M0D)"?$!`0````````#Y"0D)"0CX"`@(```````!<8D!`0$!`````````````
M/$)`/`)"/````````!`0$'P0$!`0$`X```````````!"0D)"0D(]````````
M````0D)"0D(D&````````````$E)24E)238```````````!"0B08)$)"````
M````````0D)"0D)"/@("/````````'X$"!`@0'X```````P0$!`0(!`0$!`,
M```````0$!`0$!`0$!`0$!``````,`@("`@$"`@("#`````````R3```````
M````````````````````````````````````````````````````````````
M````````````````````````````````````````````````````````````
M````````````````````````````````````````````````````````````
M````````````````````````````````````````````````````````````
M````````````````````````````````````````````````````````````
M````````````````````````````````````````````````````````````
M````````````````````````````````````````````````````````````
M````````````````````````````````````````````````````````````
M````````````````````````````````````````````````````````````
M````````````````````````````````````````````````````````````
M````````````````````````````````````````````````````````````
M````````````````````````````````````````````````````````````
M````````````````$!```!`0$!`0$!``````````"`@\2DA(2CP("```````
M'"(B('@@("`A?@```````!XA('X@?B`A'@````````!!(A0("#X(/@@(````
M`"08`#Q"0$`\`@)"/````````#Q"(#Q"0D(\!$(\```````D&``\0D`\`D(\
M````````/D%!75%174%!/@`````````X1$0^`'X`````````````"1(D2)!(
M)!()`````````````/X"`@(`````````$!```!`0$!`0$!```````#Y!755=
M655503X`````````?@```````````````````!@D)"08````````````````
M```("#X("``^````````,$@0('@``````````````'`(,`AP````````````
M)!@`?@($"!`@0$!^````````````0D)"0D)^04!`@````#Y*2DHZ"@H*"@H`
M````````````&!@`````````````)!@`?@0($"!`?@```````!!P$!`0````
M```````````8)!@`/````````````````)!()!()$B1(D````````'^(B(B.
MB(B(B'\```````````!ND9&?D)%N`````!04`$%!(A0("`@("``````````0
M$``0$!`@0$!"/```,`P`/$)"0GY"0D)"``````PP`#Q"0D)^0D)"0@`````8
M)``\0D)"?D)"0D(`````,DP`/$)"0GY"0D)"```````D`#Q"0D)^0D)"0@``
M```8)!@\0D)"?D)"0D(````````_2$A(?DA(2$A/````````/$)`0$!`0$!"
M/`0"/``8!@`^("`@/"`@(#X`````!A@`/B`@(#P@("`^``````P2`#X@("`\
M("`@/@`````4%``^("`@/"`@(#X`````&`8`'`@("`@("`@<``````88`!P(
M"`@("`@('``````(%``<"`@("`@("!P`````%!0`'`@("`@("`@<````````
M>$1"0O)"0D)$>```````&28`06%1245#04$`````,`P`/$)"0D)"0D(\````
M``PP`#Q"0D)"0D)"/``````8)``\0D)"0D)"0CP`````,DP`/$)"0D)"0D(\
M``````!F`#Q"0D)"0D)"/`````````""1"@0*$2"```````````9)D1*2E)2
M(F28`````#`,`$)"0D)"0D)"/``````,,`!"0D)"0D)"0CP`````&"0`0D)"
M0D)"0D(\``````!F`$)"0D)"0D)"/``````$"!!!02(4"`@("`@``````"`@
M(#XA(2$Q+B`@("``````'B$A(3XA(2$Q+B``````$`@$`#Q"`CY"0CT`````
M``0($``\0@(^0D(]```````0*$0`/$("/D)"/0```````#),`#Q"`CY"0CT`
M```````D)``\0@(^0D(]```````<(AP`/$("/D)"/0```````````#8)"3Y(
M2#X````````````\0D!`0$(\"`1X```@$`@`/$)"?D!"/```````!`@0`#Q"
M0GY`0CP``````!@D0@`\0D)^0$(\````````)"0`/$)"?D!"/```````$`@$
M`#@("`@("`@```````0($``X"`@("`@(```````(%"(`.`@("`@("```````
M`"(B`#@("`@("`@````````P3`0\0D)"0D(\````````,DP`?$)"0D)"0@``
M````(!`(`#Q"0D)"0CP```````@0(``\0D)"0D(\````````&"0`/$)"0D)"
M/````````#),`#Q"0D)"0CP````````D```\0D)"0D(\```````````8&`#_
M`!@8`````````````!TB14E1(EP``````"`0"`!"0D)"0D(]```````($"``
M0D)"0D)"/0``````&"1"`$)"0D)"0CT````````D)`!"0D)"0D(]````````
M!`@0`$)"0D)"/@("/```("`@/B$A(2$Q+B`@(``````D)```0D)"0D(^`@(\
!````
`
end
