# $FreeBSD: acb8b11268d769c143ab7068af9278350cc217bb $
00000000  42 0a 42 0a 42 0a 42 0a  42 0a 42 0a 42 0a 42 0a  |B.B.B.B.B.B.B.B.|
*
000001b0  42 0a 42 0a 42 0a 42 0a  42 0a 42 0a 42 0a 00 00  |B.B.B.B.B.B.B...|
000001c0  02 00 ee ff ff ff 01 00  00 00 04 21 00 00 00 00  |...........!....|
000001d0  00 00 00 00 00 00 00 00  00 00 00 00 00 00 00 00  |................|
*
000001f0  00 00 00 00 00 00 00 00  00 00 00 00 00 00 55 aa  |..............U.|
00000200  45 46 49 20 50 41 52 54  00 00 01 00 5c 00 00 00  |EFI PART....\...|
00000210  ac a4 e7 f3 00 00 00 00  01 00 00 00 00 00 00 00  |................|
00000220  04 21 00 00 00 00 00 00  03 00 00 00 00 00 00 00  |.!..............|
00000230  02 21 00 00 00 00 00 00  03 03 03 03 03 03 03 03  |.!..............|
00000240  03 03 03 03 03 03 03 03  02 00 00 00 00 00 00 00  |................|
00000250  04 00 00 00 80 00 00 00  45 45 ea fb 00 00 00 00  |........EE......|
00000260  00 00 00 00 00 00 00 00  00 00 00 00 00 00 00 00  |................|
*
00000400  b6 7c 6e 51 cf 6e d6 11  8f f8 00 02 2d 09 71 2b  |.|nQ.n......-.q+|
00000410  01 01 01 01 01 01 01 01  01 01 01 01 01 01 01 01  |................|
00000420  03 00 00 00 00 00 00 00  02 20 00 00 00 00 00 00  |......... ......|
00000430  00 00 00 00 00 00 00 00  00 00 00 00 00 00 00 00  |................|
*
00000480  b5 7c 6e 51 cf 6e d6 11  8f f8 00 02 2d 09 71 2b  |.|nQ.n......-.q+|
00000490  02 02 02 02 02 02 02 02  02 02 02 02 02 02 02 02  |................|
000004a0  03 20 00 00 00 00 00 00  02 21 00 00 00 00 00 00  |. .......!......|
000004b0  00 00 00 00 00 00 00 00  00 00 00 00 00 00 00 00  |................|
*
00000600  50 0a 50 0a 50 0a 50 0a  50 0a 50 0a 50 0a 50 0a  |P.P.P.P.P.P.P.P.|
*
00400600  00 00 00 00 00 00 00 00  00 00 00 00 00 00 00 00  |................|
*
00420600  b6 7c 6e 51 cf 6e d6 11  8f f8 00 02 2d 09 71 2b  |.|nQ.n......-.q+|
00420610  01 01 01 01 01 01 01 01  01 01 01 01 01 01 01 01  |................|
00420620  03 00 00 00 00 00 00 00  02 20 00 00 00 00 00 00  |......... ......|
00420630  00 00 00 00 00 00 00 00  00 00 00 00 00 00 00 00  |................|
*
00420680  b5 7c 6e 51 cf 6e d6 11  8f f8 00 02 2d 09 71 2b  |.|nQ.n......-.q+|
00420690  02 02 02 02 02 02 02 02  02 02 02 02 02 02 02 02  |................|
004206a0  03 20 00 00 00 00 00 00  02 21 00 00 00 00 00 00  |. .......!......|
004206b0  00 00 00 00 00 00 00 00  00 00 00 00 00 00 00 00  |................|
*
00420800  45 46 49 20 50 41 52 54  00 00 01 00 5c 00 00 00  |EFI PART....\...|
00420810  a4 99 f3 13 00 00 00 00  04 21 00 00 00 00 00 00  |.........!......|
00420820  01 00 00 00 00 00 00 00  03 00 00 00 00 00 00 00  |................|
00420830  02 21 00 00 00 00 00 00  03 03 03 03 03 03 03 03  |.!..............|
00420840  03 03 03 03 03 03 03 03  03 21 00 00 00 00 00 00  |.........!......|
00420850  04 00 00 00 80 00 00 00  45 45 ea fb 00 00 00 00  |........EE......|
00420860  00 00 00 00 00 00 00 00  00 00 00 00 00 00 00 00  |................|
*
00420a00
