# $FreeBSD: 94d4f20b9ff4fb68d889fc124baa6246f1b1f6ee $
00000000  42 0a 42 0a 42 0a 42 0a  42 0a 42 0a 42 0a 42 0a  |B.B.B.B.B.B.B.B.|
*
00000200  57 45 56 82 00 00 00 00  00 00 00 00 00 00 00 00  |WEV.............|
00000210  00 00 00 00 00 00 00 00  00 00 00 00 00 00 00 00  |................|
00000220  00 00 00 00 00 00 00 00  00 02 00 00 3f 00 00 00  |............?...|
00000230  ff 00 00 00 01 00 00 00  c1 3e 00 00 c1 3e 00 00  |.........>...>..|
00000240  00 00 00 00 00 00 00 00  10 0e 00 00 00 00 00 00  |................|
00000250  00 00 00 00 00 00 00 00  00 00 00 00 00 00 00 00  |................|
*
00000280  00 00 00 00 57 45 56 82  1e 13 08 00 00 20 00 00  |....WEV...... ..|
00000290  00 00 00 00 00 20 00 00  10 00 00 00 00 00 00 00  |..... ..........|
000002a0  07 00 00 00 00 01 00 00  10 20 00 00 00 00 00 00  |......... ......|
000002b0  01 00 00 00 c1 3e 00 00  00 00 00 00 00 00 00 00  |.....>..........|
000002c0  00 00 00 00 00 00 00 00  00 00 00 00 00 00 00 00  |................|
*
00000310  00 00 00 00 42 0a 42 0a  42 0a 42 0a 42 0a 42 0a  |....B.B.B.B.B.B.|
00000320  42 0a 42 0a 42 0a 42 0a  42 0a 42 0a 42 0a 42 0a  |B.B.B.B.B.B.B.B.|
*
00002000  50 0a 50 0a 50 0a 50 0a  50 0a 50 0a 50 0a 50 0a  |P.P.P.P.P.P.P.P.|
*
00402000  00 00 00 00 00 00 00 00  00 00 00 00 00 00 00 00  |................|
*
007d8200
