# $FreeBSD: f4c290f7faf1b52e4af5d64dc4e67f2605fac8f6 $
00000000  76 68 64 78 66 69 6c 65  00 00 00 00 00 00 00 00  |vhdxfile........|
00000010  00 00 00 00 00 00 00 00  00 00 00 00 00 00 00 00  |................|
*
00010000  68 65 61 64 64 db 05 73  00 00 00 00 00 00 00 00  |headd..s........|
00010010  00 00 00 00 00 00 00 00  00 00 00 00 00 00 00 00  |................|
*
00010040  00 00 01 00 00 00 10 00  00 00 10 00 00 00 00 00  |................|
00010050  00 00 00 00 00 00 00 00  00 00 00 00 00 00 00 00  |................|
*
00020000  68 65 61 64 13 47 fd f1  01 00 00 00 00 00 00 00  |head.G..........|
00020010  00 00 00 00 00 00 00 00  00 00 00 00 00 00 00 00  |................|
*
00020040  00 00 01 00 00 00 10 00  00 00 10 00 00 00 00 00  |................|
00020050  00 00 00 00 00 00 00 00  00 00 00 00 00 00 00 00  |................|
*
00030000  72 65 67 69 4c d5 3e 14  02 00 00 00 00 00 00 00  |regiL.>.........|
00030010  06 a2 7c 8b 90 47 9a 4b  b8 fe 57 5f 05 0f 88 6e  |..|..G.K..W_...n|
00030020  00 00 20 00 00 00 00 00  00 00 10 00 00 00 00 00  |.. .............|
00030030  66 77 c2 2d 23 f6 00 42  9d 64 11 5e 9b fd 4a 08  |fw.-#..B.d.^..J.|
00030040  00 00 30 00 00 00 00 00  00 00 10 00 00 00 00 00  |..0.............|
00030050  00 00 00 00 00 00 00 00  00 00 00 00 00 00 00 00  |................|
*
00040000  72 65 67 69 4c d5 3e 14  02 00 00 00 00 00 00 00  |regiL.>.........|
00040010  06 a2 7c 8b 90 47 9a 4b  b8 fe 57 5f 05 0f 88 6e  |..|..G.K..W_...n|
00040020  00 00 20 00 00 00 00 00  00 00 10 00 00 00 00 00  |.. .............|
00040030  66 77 c2 2d 23 f6 00 42  9d 64 11 5e 9b fd 4a 08  |fw.-#..B.d.^..J.|
00040040  00 00 30 00 00 00 00 00  00 00 10 00 00 00 00 00  |..0.............|
00040050  00 00 00 00 00 00 00 00  00 00 00 00 00 00 00 00  |................|
*
00200000  6d 65 74 61 64 61 74 61  00 00 05 00 00 00 00 00  |metadata........|
00200010  00 00 00 00 00 00 00 00  00 00 00 00 00 00 00 00  |................|
00200020  37 67 a1 ca 36 fa 43 4d  b3 b6 33 f0 aa 44 e7 6b  |7g..6.CM..3..D.k|
00200030  00 00 01 00 08 00 00 00  04 00 00 00 00 00 00 00  |................|
00200040  24 42 a5 2f 1b cd 76 48  b2 11 5d be d8 3b f4 b8  |$B./..vH..]..;..|
00200050  08 00 01 00 08 00 00 00  06 00 00 00 00 00 00 00  |................|
00200060  ab 12 ca be e6 b2 23 45  93 ef c3 09 e0 00 c7 46  |......#E.......F|
00200070  10 00 01 00 10 00 00 00  06 00 00 00 00 00 00 00  |................|
00200080  1d bf 41 81 6f a9 09 47  ba 47 f2 33 a8 fa ab 5f  |..A.o..G.G.3..._|
00200090  20 00 01 00 04 00 00 00  06 00 00 00 00 00 00 00  | ...............|
002000a0  c7 48 a3 cd 5d 44 71 44  9c c9 e9 88 52 51 c5 56  |.H..]DqD....RQ.V|
002000b0  24 00 01 00 04 00 00 00  06 00 00 00 00 00 00 00  |$...............|
002000c0  00 00 00 00 00 00 00 00  00 00 00 00 00 00 00 00  |................|
*
00210000  00 00 00 01 00 00 00 00  00 00 00 01 00 00 00 00  |................|
00210010  04 04 04 04 04 04 04 04  04 04 04 04 04 04 04 04  |................|
00210020  00 02 00 00 00 02 00 00  00 00 00 00 00 00 00 00  |................|
00210030  00 00 00 00 00 00 00 00  00 00 00 00 00 00 00 00  |................|
*
00300000  06 00 40 00 00 00 00 00  00 00 00 00 00 00 00 00  |..@.............|
00300010  00 00 00 00 00 00 00 00  00 00 00 00 00 00 00 00  |................|
*
00400000  42 0a 42 0a 42 0a 42 0a  42 0a 42 0a 42 0a 42 0a  |B.B.B.B.B.B.B.B.|
*
004001b0  42 0a 42 0a 42 0a 42 0a  42 0a 42 0a 42 0a 00 00  |B.B.B.B.B.B.B...|
004001c0  02 00 ee ff ff ff 01 00  00 00 ff 7f 00 00 00 00  |................|
004001d0  00 00 00 00 00 00 00 00  00 00 00 00 00 00 00 00  |................|
*
004001f0  00 00 00 00 00 00 00 00  00 00 00 00 00 00 55 aa  |..............U.|
00400200  45 46 49 20 50 41 52 54  00 00 01 00 5c 00 00 00  |EFI PART....\...|
00400210  71 3e 06 15 00 00 00 00  01 00 00 00 00 00 00 00  |q>..............|
00400220  ff 7f 00 00 00 00 00 00  03 00 00 00 00 00 00 00  |................|
00400230  fd 7f 00 00 00 00 00 00  03 03 03 03 03 03 03 03  |................|
00400240  03 03 03 03 03 03 03 03  02 00 00 00 00 00 00 00  |................|
00400250  04 00 00 00 80 00 00 00  45 45 ea fb 00 00 00 00  |........EE......|
00400260  00 00 00 00 00 00 00 00  00 00 00 00 00 00 00 00  |................|
*
00400400  b6 7c 6e 51 cf 6e d6 11  8f f8 00 02 2d 09 71 2b  |.|nQ.n......-.q+|
00400410  01 01 01 01 01 01 01 01  01 01 01 01 01 01 01 01  |................|
00400420  03 00 00 00 00 00 00 00  02 20 00 00 00 00 00 00  |......... ......|
00400430  00 00 00 00 00 00 00 00  00 00 00 00 00 00 00 00  |................|
*
00400480  b5 7c 6e 51 cf 6e d6 11  8f f8 00 02 2d 09 71 2b  |.|nQ.n......-.q+|
00400490  02 02 02 02 02 02 02 02  02 02 02 02 02 02 02 02  |................|
004004a0  03 20 00 00 00 00 00 00  02 21 00 00 00 00 00 00  |. .......!......|
004004b0  00 00 00 00 00 00 00 00  00 00 00 00 00 00 00 00  |................|
*
00400600  50 0a 50 0a 50 0a 50 0a  50 0a 50 0a 50 0a 50 0a  |P.P.P.P.P.P.P.P.|
*
00800600  00 00 00 00 00 00 00 00  00 00 00 00 00 00 00 00  |................|
*
013ffc00  b6 7c 6e 51 cf 6e d6 11  8f f8 00 02 2d 09 71 2b  |.|nQ.n......-.q+|
013ffc10  01 01 01 01 01 01 01 01  01 01 01 01 01 01 01 01  |................|
013ffc20  03 00 00 00 00 00 00 00  02 20 00 00 00 00 00 00  |......... ......|
013ffc30  00 00 00 00 00 00 00 00  00 00 00 00 00 00 00 00  |................|
*
013ffc80  b5 7c 6e 51 cf 6e d6 11  8f f8 00 02 2d 09 71 2b  |.|nQ.n......-.q+|
013ffc90  02 02 02 02 02 02 02 02  02 02 02 02 02 02 02 02  |................|
013ffca0  03 20 00 00 00 00 00 00  02 21 00 00 00 00 00 00  |. .......!......|
013ffcb0  00 00 00 00 00 00 00 00  00 00 00 00 00 00 00 00  |................|
*
013ffe00  45 46 49 20 50 41 52 54  00 00 01 00 5c 00 00 00  |EFI PART....\...|
013ffe10  82 04 6b 93 00 00 00 00  ff 7f 00 00 00 00 00 00  |..k.............|
013ffe20  01 00 00 00 00 00 00 00  03 00 00 00 00 00 00 00  |................|
013ffe30  fd 7f 00 00 00 00 00 00  03 03 03 03 03 03 03 03  |................|
013ffe40  03 03 03 03 03 03 03 03  fe 7f 00 00 00 00 00 00  |................|
013ffe50  04 00 00 00 80 00 00 00  45 45 ea fb 00 00 00 00  |........EE......|
013ffe60  00 00 00 00 00 00 00 00  00 00 00 00 00 00 00 00  |................|
*
01400000
