# $FreeBSD: 2680681e1fd7134616c038d75d74f1170b343882 $
00000000  4b 44 4d 56 01 00 00 00  03 00 00 00 00 40 00 00  |KDMV.........@..|
00000010  00 00 00 00 10 00 00 00  00 00 00 00 01 00 00 00  |................|
00000020  00 00 00 00 01 00 00 00  00 00 00 00 00 02 00 00  |................|
00000030  0b 00 00 00 00 00 00 00  02 00 00 00 00 00 00 00  |................|
00000040  20 00 00 00 00 00 00 00  00 0a 20 0d 0a 00 00 00  | ......... .....|
00000050  00 00 00 00 00 00 00 00  00 00 00 00 00 00 00 00  |................|
*
00000200  23 20 44 69 73 6b 20 44  65 73 63 72 69 70 74 6f  |# Disk Descripto|
00000210  72 46 69 6c 65 0a 76 65  72 73 69 6f 6e 3d 31 0a  |rFile.version=1.|
00000220  43 49 44 3d 30 30 30 30  30 30 30 30 0a 70 61 72  |CID=00000000.par|
00000230  65 6e 74 43 49 44 3d 66  66 66 66 66 66 66 66 0a  |entCID=ffffffff.|
00000240  63 72 65 61 74 65 54 79  70 65 3d 22 6d 6f 6e 6f  |createType="mono|
00000250  6c 69 74 68 69 63 53 70  61 72 73 65 22 0a 23 20  |lithicSparse".# |
00000260  45 78 74 65 6e 74 20 64  65 73 63 72 69 70 74 69  |Extent descripti|
00000270  6f 6e 0a 52 57 20 31 36  33 38 34 20 53 50 41 52  |on.RW 16384 SPAR|
00000280  53 45 20 22 22 0a 23 20  54 68 65 20 44 69 73 6b  |SE "".# The Disk|
00000290  20 44 61 74 61 20 42 61  73 65 0a 23 44 44 42 0a  | Data Base.#DDB.|
000002a0  64 64 62 2e 61 64 61 70  74 65 72 54 79 70 65 20  |ddb.adapterType |
000002b0  3d 20 22 69 64 65 22 0a  64 64 62 2e 67 65 6f 6d  |= "ide".ddb.geom|
000002c0  65 74 72 79 2e 63 79 6c  69 6e 64 65 72 73 20 3d  |etry.cylinders =|
000002d0  20 22 31 22 0a 64 64 62  2e 67 65 6f 6d 65 74 72  | "1".ddb.geometr|
000002e0  79 2e 68 65 61 64 73 20  3d 20 22 32 35 35 22 0a  |y.heads = "255".|
000002f0  64 64 62 2e 67 65 6f 6d  65 74 72 79 2e 73 65 63  |ddb.geometry.sec|
00000300  74 6f 72 73 20 3d 20 22  36 33 22 0a 00 00 00 00  |tors = "63".....|
00000310  00 00 00 00 00 00 00 00  00 00 00 00 00 00 00 00  |................|
*
00000400  03 00 00 00 07 00 00 00  00 00 00 00 00 00 00 00  |................|
00000410  00 00 00 00 00 00 00 00  00 00 00 00 00 00 00 00  |................|
*
00000600  20 00 00 00 00 00 00 00  00 00 00 00 30 00 00 00  | ...........0...|
00000610  40 00 00 00 50 00 00 00  60 00 00 00 70 00 00 00  |@...P...`...p...|
00000620  80 00 00 00 90 00 00 00  a0 00 00 00 b0 00 00 00  |................|
00000630  c0 00 00 00 d0 00 00 00  e0 00 00 00 f0 00 00 00  |................|
00000640  00 01 00 00 10 01 00 00  20 01 00 00 30 01 00 00  |........ ...0...|
00000650  40 01 00 00 50 01 00 00  60 01 00 00 70 01 00 00  |@...P...`...p...|
00000660  80 01 00 00 90 01 00 00  a0 01 00 00 b0 01 00 00  |................|
00000670  c0 01 00 00 d0 01 00 00  e0 01 00 00 f0 01 00 00  |................|
00000680  00 02 00 00 10 02 00 00  20 02 00 00 30 02 00 00  |........ ...0...|
00000690  40 02 00 00 50 02 00 00  60 02 00 00 70 02 00 00  |@...P...`...p...|
000006a0  80 02 00 00 90 02 00 00  a0 02 00 00 b0 02 00 00  |................|
000006b0  c0 02 00 00 d0 02 00 00  e0 02 00 00 f0 02 00 00  |................|
000006c0  00 03 00 00 10 03 00 00  20 03 00 00 30 03 00 00  |........ ...0...|
000006d0  40 03 00 00 50 03 00 00  60 03 00 00 70 03 00 00  |@...P...`...p...|
000006e0  80 03 00 00 90 03 00 00  a0 03 00 00 b0 03 00 00  |................|
000006f0  c0 03 00 00 d0 03 00 00  e0 03 00 00 f0 03 00 00  |................|
00000700  00 04 00 00 10 04 00 00  20 04 00 00 30 04 00 00  |........ ...0...|
00000710  40 04 00 00 50 04 00 00  60 04 00 00 70 04 00 00  |@...P...`...p...|
00000720  80 04 00 00 90 04 00 00  a0 04 00 00 b0 04 00 00  |................|
00000730  c0 04 00 00 d0 04 00 00  e0 04 00 00 f0 04 00 00  |................|
00000740  00 05 00 00 10 05 00 00  20 05 00 00 30 05 00 00  |........ ...0...|
00000750  40 05 00 00 50 05 00 00  60 05 00 00 70 05 00 00  |@...P...`...p...|
00000760  80 05 00 00 90 05 00 00  a0 05 00 00 b0 05 00 00  |................|
00000770  c0 05 00 00 d0 05 00 00  e0 05 00 00 f0 05 00 00  |................|
00000780  00 06 00 00 10 06 00 00  20 06 00 00 30 06 00 00  |........ ...0...|
00000790  40 06 00 00 50 06 00 00  60 06 00 00 70 06 00 00  |@...P...`...p...|
000007a0  80 06 00 00 90 06 00 00  a0 06 00 00 b0 06 00 00  |................|
000007b0  c0 06 00 00 d0 06 00 00  e0 06 00 00 f0 06 00 00  |................|
000007c0  00 07 00 00 10 07 00 00  20 07 00 00 30 07 00 00  |........ ...0...|
000007d0  40 07 00 00 50 07 00 00  60 07 00 00 70 07 00 00  |@...P...`...p...|
000007e0  80 07 00 00 90 07 00 00  a0 07 00 00 b0 07 00 00  |................|
000007f0  c0 07 00 00 d0 07 00 00  e0 07 00 00 f0 07 00 00  |................|
00000800  00 08 00 00 10 08 00 00  20 08 00 00 30 08 00 00  |........ ...0...|
00000810  40 08 00 00 50 08 00 00  60 08 00 00 70 08 00 00  |@...P...`...p...|
00000820  80 08 00 00 90 08 00 00  a0 08 00 00 b0 08 00 00  |................|
00000830  c0 08 00 00 d0 08 00 00  e0 08 00 00 f0 08 00 00  |................|
00000840  00 09 00 00 10 09 00 00  20 09 00 00 30 09 00 00  |........ ...0...|
00000850  40 09 00 00 50 09 00 00  60 09 00 00 70 09 00 00  |@...P...`...p...|
00000860  80 09 00 00 90 09 00 00  a0 09 00 00 b0 09 00 00  |................|
00000870  c0 09 00 00 d0 09 00 00  e0 09 00 00 f0 09 00 00  |................|
00000880  00 0a 00 00 10 0a 00 00  20 0a 00 00 30 0a 00 00  |........ ...0...|
00000890  40 0a 00 00 50 0a 00 00  60 0a 00 00 70 0a 00 00  |@...P...`...p...|
000008a0  80 0a 00 00 90 0a 00 00  a0 0a 00 00 b0 0a 00 00  |................|
000008b0  c0 0a 00 00 d0 0a 00 00  e0 0a 00 00 f0 0a 00 00  |................|
000008c0  00 0b 00 00 10 0b 00 00  20 0b 00 00 30 0b 00 00  |........ ...0...|
000008d0  40 0b 00 00 50 0b 00 00  60 0b 00 00 70 0b 00 00  |@...P...`...p...|
000008e0  80 0b 00 00 90 0b 00 00  a0 0b 00 00 b0 0b 00 00  |................|
000008f0  c0 0b 00 00 d0 0b 00 00  e0 0b 00 00 f0 0b 00 00  |................|
00000900  00 0c 00 00 10 0c 00 00  20 0c 00 00 30 0c 00 00  |........ ...0...|
00000910  40 0c 00 00 50 0c 00 00  60 0c 00 00 70 0c 00 00  |@...P...`...p...|
00000920  80 0c 00 00 90 0c 00 00  a0 0c 00 00 b0 0c 00 00  |................|
00000930  c0 0c 00 00 d0 0c 00 00  e0 0c 00 00 f0 0c 00 00  |................|
00000940  00 0d 00 00 10 0d 00 00  20 0d 00 00 30 0d 00 00  |........ ...0...|
00000950  40 0d 00 00 50 0d 00 00  60 0d 00 00 70 0d 00 00  |@...P...`...p...|
00000960  80 0d 00 00 90 0d 00 00  a0 0d 00 00 b0 0d 00 00  |................|
00000970  c0 0d 00 00 d0 0d 00 00  e0 0d 00 00 f0 0d 00 00  |................|
00000980  00 0e 00 00 10 0e 00 00  20 0e 00 00 30 0e 00 00  |........ ...0...|
00000990  40 0e 00 00 50 0e 00 00  60 0e 00 00 70 0e 00 00  |@...P...`...p...|
000009a0  80 0e 00 00 90 0e 00 00  a0 0e 00 00 b0 0e 00 00  |................|
000009b0  c0 0e 00 00 d0 0e 00 00  e0 0e 00 00 f0 0e 00 00  |................|
000009c0  00 0f 00 00 10 0f 00 00  20 0f 00 00 30 0f 00 00  |........ ...0...|
000009d0  40 0f 00 00 50 0f 00 00  60 0f 00 00 70 0f 00 00  |@...P...`...p...|
000009e0  80 0f 00 00 90 0f 00 00  a0 0f 00 00 b0 0f 00 00  |................|
000009f0  c0 0f 00 00 d0 0f 00 00  e0 0f 00 00 f0 0f 00 00  |................|
00000a00  00 10 00 00 10 10 00 00  20 10 00 00 30 10 00 00  |........ ...0...|
00000a10  40 10 00 00 50 10 00 00  60 10 00 00 70 10 00 00  |@...P...`...p...|
00000a20  80 10 00 00 90 10 00 00  a0 10 00 00 b0 10 00 00  |................|
00000a30  c0 10 00 00 d0 10 00 00  e0 10 00 00 f0 10 00 00  |................|
00000a40  00 11 00 00 10 11 00 00  20 11 00 00 30 11 00 00  |........ ...0...|
00000a50  40 11 00 00 50 11 00 00  60 11 00 00 70 11 00 00  |@...P...`...p...|
00000a60  80 11 00 00 90 11 00 00  a0 11 00 00 b0 11 00 00  |................|
00000a70  c0 11 00 00 d0 11 00 00  e0 11 00 00 f0 11 00 00  |................|
00000a80  00 12 00 00 10 12 00 00  20 12 00 00 30 12 00 00  |........ ...0...|
00000a90  40 12 00 00 50 12 00 00  60 12 00 00 70 12 00 00  |@...P...`...p...|
00000aa0  80 12 00 00 90 12 00 00  a0 12 00 00 b0 12 00 00  |................|
00000ab0  c0 12 00 00 d0 12 00 00  e0 12 00 00 f0 12 00 00  |................|
00000ac0  00 13 00 00 10 13 00 00  20 13 00 00 30 13 00 00  |........ ...0...|
00000ad0  40 13 00 00 50 13 00 00  60 13 00 00 70 13 00 00  |@...P...`...p...|
00000ae0  80 13 00 00 90 13 00 00  a0 13 00 00 b0 13 00 00  |................|
00000af0  c0 13 00 00 d0 13 00 00  e0 13 00 00 f0 13 00 00  |................|
00000b00  00 14 00 00 10 14 00 00  20 14 00 00 30 14 00 00  |........ ...0...|
00000b10  40 14 00 00 50 14 00 00  60 14 00 00 70 14 00 00  |@...P...`...p...|
00000b20  80 14 00 00 90 14 00 00  a0 14 00 00 b0 14 00 00  |................|
00000b30  c0 14 00 00 d0 14 00 00  e0 14 00 00 f0 14 00 00  |................|
00000b40  00 15 00 00 10 15 00 00  20 15 00 00 30 15 00 00  |........ ...0...|
00000b50  40 15 00 00 50 15 00 00  60 15 00 00 70 15 00 00  |@...P...`...p...|
00000b60  80 15 00 00 90 15 00 00  a0 15 00 00 b0 15 00 00  |................|
00000b70  c0 15 00 00 d0 15 00 00  e0 15 00 00 f0 15 00 00  |................|
00000b80  00 16 00 00 10 16 00 00  20 16 00 00 30 16 00 00  |........ ...0...|
00000b90  40 16 00 00 50 16 00 00  60 16 00 00 70 16 00 00  |@...P...`...p...|
00000ba0  80 16 00 00 90 16 00 00  a0 16 00 00 b0 16 00 00  |................|
00000bb0  c0 16 00 00 d0 16 00 00  e0 16 00 00 f0 16 00 00  |................|
00000bc0  00 17 00 00 10 17 00 00  20 17 00 00 30 17 00 00  |........ ...0...|
00000bd0  40 17 00 00 50 17 00 00  60 17 00 00 70 17 00 00  |@...P...`...p...|
00000be0  80 17 00 00 90 17 00 00  a0 17 00 00 b0 17 00 00  |................|
00000bf0  c0 17 00 00 d0 17 00 00  e0 17 00 00 f0 17 00 00  |................|
00000c00  00 18 00 00 10 18 00 00  20 18 00 00 30 18 00 00  |........ ...0...|
00000c10  40 18 00 00 50 18 00 00  60 18 00 00 70 18 00 00  |@...P...`...p...|
00000c20  80 18 00 00 90 18 00 00  a0 18 00 00 b0 18 00 00  |................|
00000c30  c0 18 00 00 d0 18 00 00  e0 18 00 00 f0 18 00 00  |................|
00000c40  00 19 00 00 10 19 00 00  20 19 00 00 30 19 00 00  |........ ...0...|
00000c50  40 19 00 00 50 19 00 00  60 19 00 00 70 19 00 00  |@...P...`...p...|
00000c60  80 19 00 00 90 19 00 00  a0 19 00 00 b0 19 00 00  |................|
00000c70  c0 19 00 00 d0 19 00 00  e0 19 00 00 f0 19 00 00  |................|
00000c80  00 1a 00 00 10 1a 00 00  20 1a 00 00 30 1a 00 00  |........ ...0...|
00000c90  40 1a 00 00 50 1a 00 00  60 1a 00 00 70 1a 00 00  |@...P...`...p...|
00000ca0  80 1a 00 00 90 1a 00 00  a0 1a 00 00 b0 1a 00 00  |................|
00000cb0  c0 1a 00 00 d0 1a 00 00  e0 1a 00 00 f0 1a 00 00  |................|
00000cc0  00 1b 00 00 10 1b 00 00  20 1b 00 00 30 1b 00 00  |........ ...0...|
00000cd0  40 1b 00 00 50 1b 00 00  60 1b 00 00 70 1b 00 00  |@...P...`...p...|
00000ce0  80 1b 00 00 90 1b 00 00  a0 1b 00 00 b0 1b 00 00  |................|
00000cf0  c0 1b 00 00 d0 1b 00 00  e0 1b 00 00 f0 1b 00 00  |................|
00000d00  00 1c 00 00 10 1c 00 00  20 1c 00 00 30 1c 00 00  |........ ...0...|
00000d10  40 1c 00 00 50 1c 00 00  60 1c 00 00 70 1c 00 00  |@...P...`...p...|
00000d20  80 1c 00 00 90 1c 00 00  a0 1c 00 00 b0 1c 00 00  |................|
00000d30  c0 1c 00 00 d0 1c 00 00  e0 1c 00 00 f0 1c 00 00  |................|
00000d40  00 1d 00 00 10 1d 00 00  20 1d 00 00 30 1d 00 00  |........ ...0...|
00000d50  40 1d 00 00 50 1d 00 00  60 1d 00 00 70 1d 00 00  |@...P...`...p...|
00000d60  80 1d 00 00 90 1d 00 00  a0 1d 00 00 b0 1d 00 00  |................|
00000d70  c0 1d 00 00 d0 1d 00 00  e0 1d 00 00 f0 1d 00 00  |................|
00000d80  00 1e 00 00 10 1e 00 00  20 1e 00 00 30 1e 00 00  |........ ...0...|
00000d90  40 1e 00 00 50 1e 00 00  60 1e 00 00 70 1e 00 00  |@...P...`...p...|
00000da0  80 1e 00 00 90 1e 00 00  a0 1e 00 00 b0 1e 00 00  |................|
00000db0  c0 1e 00 00 d0 1e 00 00  e0 1e 00 00 f0 1e 00 00  |................|
00000dc0  00 1f 00 00 10 1f 00 00  20 1f 00 00 30 1f 00 00  |........ ...0...|
00000dd0  40 1f 00 00 50 1f 00 00  60 1f 00 00 70 1f 00 00  |@...P...`...p...|
00000de0  80 1f 00 00 90 1f 00 00  a0 1f 00 00 b0 1f 00 00  |................|
00000df0  c0 1f 00 00 d0 1f 00 00  e0 1f 00 00 f0 1f 00 00  |................|
00000e00  00 20 00 00 10 20 00 00  20 20 00 00 30 20 00 00  |. ... ..  ..0 ..|
00000e10  40 20 00 00 00 00 00 00  00 00 00 00 00 00 00 00  |@ ..............|
00000e20  00 00 00 00 00 00 00 00  00 00 00 00 00 00 00 00  |................|
*
00001600  0c 00 00 00 10 00 00 00  00 00 00 00 00 00 00 00  |................|
00001610  00 00 00 00 00 00 00 00  00 00 00 00 00 00 00 00  |................|
*
00001800  20 00 00 00 00 00 00 00  00 00 00 00 30 00 00 00  | ...........0...|
00001810  40 00 00 00 50 00 00 00  60 00 00 00 70 00 00 00  |@...P...`...p...|
00001820  80 00 00 00 90 00 00 00  a0 00 00 00 b0 00 00 00  |................|
00001830  c0 00 00 00 d0 00 00 00  e0 00 00 00 f0 00 00 00  |................|
00001840  00 01 00 00 10 01 00 00  20 01 00 00 30 01 00 00  |........ ...0...|
00001850  40 01 00 00 50 01 00 00  60 01 00 00 70 01 00 00  |@...P...`...p...|
00001860  80 01 00 00 90 01 00 00  a0 01 00 00 b0 01 00 00  |................|
00001870  c0 01 00 00 d0 01 00 00  e0 01 00 00 f0 01 00 00  |................|
00001880  00 02 00 00 10 02 00 00  20 02 00 00 30 02 00 00  |........ ...0...|
00001890  40 02 00 00 50 02 00 00  60 02 00 00 70 02 00 00  |@...P...`...p...|
000018a0  80 02 00 00 90 02 00 00  a0 02 00 00 b0 02 00 00  |................|
000018b0  c0 02 00 00 d0 02 00 00  e0 02 00 00 f0 02 00 00  |................|
000018c0  00 03 00 00 10 03 00 00  20 03 00 00 30 03 00 00  |........ ...0...|
000018d0  40 03 00 00 50 03 00 00  60 03 00 00 70 03 00 00  |@...P...`...p...|
000018e0  80 03 00 00 90 03 00 00  a0 03 00 00 b0 03 00 00  |................|
000018f0  c0 03 00 00 d0 03 00 00  e0 03 00 00 f0 03 00 00  |................|
00001900  00 04 00 00 10 04 00 00  20 04 00 00 30 04 00 00  |........ ...0...|
00001910  40 04 00 00 50 04 00 00  60 04 00 00 70 04 00 00  |@...P...`...p...|
00001920  80 04 00 00 90 04 00 00  a0 04 00 00 b0 04 00 00  |................|
00001930  c0 04 00 00 d0 04 00 00  e0 04 00 00 f0 04 00 00  |................|
00001940  00 05 00 00 10 05 00 00  20 05 00 00 30 05 00 00  |........ ...0...|
00001950  40 05 00 00 50 05 00 00  60 05 00 00 70 05 00 00  |@...P...`...p...|
00001960  80 05 00 00 90 05 00 00  a0 05 00 00 b0 05 00 00  |................|
00001970  c0 05 00 00 d0 05 00 00  e0 05 00 00 f0 05 00 00  |................|
00001980  00 06 00 00 10 06 00 00  20 06 00 00 30 06 00 00  |........ ...0...|
00001990  40 06 00 00 50 06 00 00  60 06 00 00 70 06 00 00  |@...P...`...p...|
000019a0  80 06 00 00 90 06 00 00  a0 06 00 00 b0 06 00 00  |................|
000019b0  c0 06 00 00 d0 06 00 00  e0 06 00 00 f0 06 00 00  |................|
000019c0  00 07 00 00 10 07 00 00  20 07 00 00 30 07 00 00  |........ ...0...|
000019d0  40 07 00 00 50 07 00 00  60 07 00 00 70 07 00 00  |@...P...`...p...|
000019e0  80 07 00 00 90 07 00 00  a0 07 00 00 b0 07 00 00  |................|
000019f0  c0 07 00 00 d0 07 00 00  e0 07 00 00 f0 07 00 00  |................|
00001a00  00 08 00 00 10 08 00 00  20 08 00 00 30 08 00 00  |........ ...0...|
00001a10  40 08 00 00 50 08 00 00  60 08 00 00 70 08 00 00  |@...P...`...p...|
00001a20  80 08 00 00 90 08 00 00  a0 08 00 00 b0 08 00 00  |................|
00001a30  c0 08 00 00 d0 08 00 00  e0 08 00 00 f0 08 00 00  |................|
00001a40  00 09 00 00 10 09 00 00  20 09 00 00 30 09 00 00  |........ ...0...|
00001a50  40 09 00 00 50 09 00 00  60 09 00 00 70 09 00 00  |@...P...`...p...|
00001a60  80 09 00 00 90 09 00 00  a0 09 00 00 b0 09 00 00  |................|
00001a70  c0 09 00 00 d0 09 00 00  e0 09 00 00 f0 09 00 00  |................|
00001a80  00 0a 00 00 10 0a 00 00  20 0a 00 00 30 0a 00 00  |........ ...0...|
00001a90  40 0a 00 00 50 0a 00 00  60 0a 00 00 70 0a 00 00  |@...P...`...p...|
00001aa0  80 0a 00 00 90 0a 00 00  a0 0a 00 00 b0 0a 00 00  |................|
00001ab0  c0 0a 00 00 d0 0a 00 00  e0 0a 00 00 f0 0a 00 00  |................|
00001ac0  00 0b 00 00 10 0b 00 00  20 0b 00 00 30 0b 00 00  |........ ...0...|
00001ad0  40 0b 00 00 50 0b 00 00  60 0b 00 00 70 0b 00 00  |@...P...`...p...|
00001ae0  80 0b 00 00 90 0b 00 00  a0 0b 00 00 b0 0b 00 00  |................|
00001af0  c0 0b 00 00 d0 0b 00 00  e0 0b 00 00 f0 0b 00 00  |................|
00001b00  00 0c 00 00 10 0c 00 00  20 0c 00 00 30 0c 00 00  |........ ...0...|
00001b10  40 0c 00 00 50 0c 00 00  60 0c 00 00 70 0c 00 00  |@...P...`...p...|
00001b20  80 0c 00 00 90 0c 00 00  a0 0c 00 00 b0 0c 00 00  |................|
00001b30  c0 0c 00 00 d0 0c 00 00  e0 0c 00 00 f0 0c 00 00  |................|
00001b40  00 0d 00 00 10 0d 00 00  20 0d 00 00 30 0d 00 00  |........ ...0...|
00001b50  40 0d 00 00 50 0d 00 00  60 0d 00 00 70 0d 00 00  |@...P...`...p...|
00001b60  80 0d 00 00 90 0d 00 00  a0 0d 00 00 b0 0d 00 00  |................|
00001b70  c0 0d 00 00 d0 0d 00 00  e0 0d 00 00 f0 0d 00 00  |................|
00001b80  00 0e 00 00 10 0e 00 00  20 0e 00 00 30 0e 00 00  |........ ...0...|
00001b90  40 0e 00 00 50 0e 00 00  60 0e 00 00 70 0e 00 00  |@...P...`...p...|
00001ba0  80 0e 00 00 90 0e 00 00  a0 0e 00 00 b0 0e 00 00  |................|
00001bb0  c0 0e 00 00 d0 0e 00 00  e0 0e 00 00 f0 0e 00 00  |................|
00001bc0  00 0f 00 00 10 0f 00 00  20 0f 00 00 30 0f 00 00  |........ ...0...|
00001bd0  40 0f 00 00 50 0f 00 00  60 0f 00 00 70 0f 00 00  |@...P...`...p...|
00001be0  80 0f 00 00 90 0f 00 00  a0 0f 00 00 b0 0f 00 00  |................|
00001bf0  c0 0f 00 00 d0 0f 00 00  e0 0f 00 00 f0 0f 00 00  |................|
00001c00  00 10 00 00 10 10 00 00  20 10 00 00 30 10 00 00  |........ ...0...|
00001c10  40 10 00 00 50 10 00 00  60 10 00 00 70 10 00 00  |@...P...`...p...|
00001c20  80 10 00 00 90 10 00 00  a0 10 00 00 b0 10 00 00  |................|
00001c30  c0 10 00 00 d0 10 00 00  e0 10 00 00 f0 10 00 00  |................|
00001c40  00 11 00 00 10 11 00 00  20 11 00 00 30 11 00 00  |........ ...0...|
00001c50  40 11 00 00 50 11 00 00  60 11 00 00 70 11 00 00  |@...P...`...p...|
00001c60  80 11 00 00 90 11 00 00  a0 11 00 00 b0 11 00 00  |................|
00001c70  c0 11 00 00 d0 11 00 00  e0 11 00 00 f0 11 00 00  |................|
00001c80  00 12 00 00 10 12 00 00  20 12 00 00 30 12 00 00  |........ ...0...|
00001c90  40 12 00 00 50 12 00 00  60 12 00 00 70 12 00 00  |@...P...`...p...|
00001ca0  80 12 00 00 90 12 00 00  a0 12 00 00 b0 12 00 00  |................|
00001cb0  c0 12 00 00 d0 12 00 00  e0 12 00 00 f0 12 00 00  |................|
00001cc0  00 13 00 00 10 13 00 00  20 13 00 00 30 13 00 00  |........ ...0...|
00001cd0  40 13 00 00 50 13 00 00  60 13 00 00 70 13 00 00  |@...P...`...p...|
00001ce0  80 13 00 00 90 13 00 00  a0 13 00 00 b0 13 00 00  |................|
00001cf0  c0 13 00 00 d0 13 00 00  e0 13 00 00 f0 13 00 00  |................|
00001d00  00 14 00 00 10 14 00 00  20 14 00 00 30 14 00 00  |........ ...0...|
00001d10  40 14 00 00 50 14 00 00  60 14 00 00 70 14 00 00  |@...P...`...p...|
00001d20  80 14 00 00 90 14 00 00  a0 14 00 00 b0 14 00 00  |................|
00001d30  c0 14 00 00 d0 14 00 00  e0 14 00 00 f0 14 00 00  |................|
00001d40  00 15 00 00 10 15 00 00  20 15 00 00 30 15 00 00  |........ ...0...|
00001d50  40 15 00 00 50 15 00 00  60 15 00 00 70 15 00 00  |@...P...`...p...|
00001d60  80 15 00 00 90 15 00 00  a0 15 00 00 b0 15 00 00  |................|
00001d70  c0 15 00 00 d0 15 00 00  e0 15 00 00 f0 15 00 00  |................|
00001d80  00 16 00 00 10 16 00 00  20 16 00 00 30 16 00 00  |........ ...0...|
00001d90  40 16 00 00 50 16 00 00  60 16 00 00 70 16 00 00  |@...P...`...p...|
00001da0  80 16 00 00 90 16 00 00  a0 16 00 00 b0 16 00 00  |................|
00001db0  c0 16 00 00 d0 16 00 00  e0 16 00 00 f0 16 00 00  |................|
00001dc0  00 17 00 00 10 17 00 00  20 17 00 00 30 17 00 00  |........ ...0...|
00001dd0  40 17 00 00 50 17 00 00  60 17 00 00 70 17 00 00  |@...P...`...p...|
00001de0  80 17 00 00 90 17 00 00  a0 17 00 00 b0 17 00 00  |................|
00001df0  c0 17 00 00 d0 17 00 00  e0 17 00 00 f0 17 00 00  |................|
00001e00  00 18 00 00 10 18 00 00  20 18 00 00 30 18 00 00  |........ ...0...|
00001e10  40 18 00 00 50 18 00 00  60 18 00 00 70 18 00 00  |@...P...`...p...|
00001e20  80 18 00 00 90 18 00 00  a0 18 00 00 b0 18 00 00  |................|
00001e30  c0 18 00 00 d0 18 00 00  e0 18 00 00 f0 18 00 00  |................|
00001e40  00 19 00 00 10 19 00 00  20 19 00 00 30 19 00 00  |........ ...0...|
00001e50  40 19 00 00 50 19 00 00  60 19 00 00 70 19 00 00  |@...P...`...p...|
00001e60  80 19 00 00 90 19 00 00  a0 19 00 00 b0 19 00 00  |................|
00001e70  c0 19 00 00 d0 19 00 00  e0 19 00 00 f0 19 00 00  |................|
00001e80  00 1a 00 00 10 1a 00 00  20 1a 00 00 30 1a 00 00  |........ ...0...|
00001e90  40 1a 00 00 50 1a 00 00  60 1a 00 00 70 1a 00 00  |@...P...`...p...|
00001ea0  80 1a 00 00 90 1a 00 00  a0 1a 00 00 b0 1a 00 00  |................|
00001eb0  c0 1a 00 00 d0 1a 00 00  e0 1a 00 00 f0 1a 00 00  |................|
00001ec0  00 1b 00 00 10 1b 00 00  20 1b 00 00 30 1b 00 00  |........ ...0...|
00001ed0  40 1b 00 00 50 1b 00 00  60 1b 00 00 70 1b 00 00  |@...P...`...p...|
00001ee0  80 1b 00 00 90 1b 00 00  a0 1b 00 00 b0 1b 00 00  |................|
00001ef0  c0 1b 00 00 d0 1b 00 00  e0 1b 00 00 f0 1b 00 00  |................|
00001f00  00 1c 00 00 10 1c 00 00  20 1c 00 00 30 1c 00 00  |........ ...0...|
00001f10  40 1c 00 00 50 1c 00 00  60 1c 00 00 70 1c 00 00  |@...P...`...p...|
00001f20  80 1c 00 00 90 1c 00 00  a0 1c 00 00 b0 1c 00 00  |................|
00001f30  c0 1c 00 00 d0 1c 00 00  e0 1c 00 00 f0 1c 00 00  |................|
00001f40  00 1d 00 00 10 1d 00 00  20 1d 00 00 30 1d 00 00  |........ ...0...|
00001f50  40 1d 00 00 50 1d 00 00  60 1d 00 00 70 1d 00 00  |@...P...`...p...|
00001f60  80 1d 00 00 90 1d 00 00  a0 1d 00 00 b0 1d 00 00  |................|
00001f70  c0 1d 00 00 d0 1d 00 00  e0 1d 00 00 f0 1d 00 00  |................|
00001f80  00 1e 00 00 10 1e 00 00  20 1e 00 00 30 1e 00 00  |........ ...0...|
00001f90  40 1e 00 00 50 1e 00 00  60 1e 00 00 70 1e 00 00  |@...P...`...p...|
00001fa0  80 1e 00 00 90 1e 00 00  a0 1e 00 00 b0 1e 00 00  |................|
00001fb0  c0 1e 00 00 d0 1e 00 00  e0 1e 00 00 f0 1e 00 00  |................|
00001fc0  00 1f 00 00 10 1f 00 00  20 1f 00 00 30 1f 00 00  |........ ...0...|
00001fd0  40 1f 00 00 50 1f 00 00  60 1f 00 00 70 1f 00 00  |@...P...`...p...|
00001fe0  80 1f 00 00 90 1f 00 00  a0 1f 00 00 b0 1f 00 00  |................|
00001ff0  c0 1f 00 00 d0 1f 00 00  e0 1f 00 00 f0 1f 00 00  |................|
00002000  00 20 00 00 10 20 00 00  20 20 00 00 30 20 00 00  |. ... ..  ..0 ..|
00002010  40 20 00 00 00 00 00 00  00 00 00 00 00 00 00 00  |@ ..............|
00002020  00 00 00 00 00 00 00 00  00 00 00 00 00 00 00 00  |................|
*
00004000  42 0a 42 0a 42 0a 42 0a  42 0a 42 0a 42 0a 42 0a  |B.B.B.B.B.B.B.B.|
*
000041b0  42 0a 42 0a 42 0a 42 0a  42 0a 42 0a 42 0a 80 01  |B.B.B.B.B.B.B...|
000041c0  01 00 a5 00 3f 01 3f 00  00 00 c1 3e 00 00 00 00  |....?.?....>....|
000041d0  00 00 00 00 00 00 00 00  00 00 00 00 00 00 00 00  |................|
*
000041f0  00 00 00 00 00 00 00 00  00 00 00 00 00 00 55 aa  |..............U.|
00004200  00 00 00 00 00 00 00 00  00 00 00 00 00 00 00 00  |................|
*
00007e00  42 0a 42 0a 42 0a 42 0a  42 0a 42 0a 42 0a 42 0a  |B.B.B.B.B.B.B.B.|
*
00008000  57 45 56 82 00 00 00 00  00 00 00 00 00 00 00 00  |WEV.............|
00008010  00 00 00 00 00 00 00 00  00 00 00 00 00 00 00 00  |................|
00008020  00 00 00 00 00 00 00 00  00 02 00 00 3f 00 00 00  |............?...|
00008030  ff 00 00 00 01 00 00 00  c1 3e 00 00 c1 3e 00 00  |.........>...>..|
00008040  00 00 00 00 00 00 00 00  10 0e 00 00 00 00 00 00  |................|
00008050  00 00 00 00 00 00 00 00  00 00 00 00 00 00 00 00  |................|
*
00008080  00 00 00 00 57 45 56 82  1e 13 08 00 00 20 00 00  |....WEV...... ..|
00008090  00 00 00 00 00 20 00 00  10 00 00 00 00 00 00 00  |..... ..........|
000080a0  07 00 00 00 00 01 00 00  10 20 00 00 00 00 00 00  |......... ......|
000080b0  01 00 00 00 c1 3e 00 00  00 00 00 00 00 00 00 00  |.....>..........|
000080c0  00 00 00 00 00 00 00 00  00 00 00 00 00 00 00 00  |................|
*
00008110  00 00 00 00 42 0a 42 0a  42 0a 42 0a 42 0a 42 0a  |....B.B.B.B.B.B.|
00008120  42 0a 42 0a 42 0a 42 0a  42 0a 42 0a 42 0a 42 0a  |B.B.B.B.B.B.B.B.|
*
00009e00  50 0a 50 0a 50 0a 50 0a  50 0a 50 0a 50 0a 50 0a  |P.P.P.P.P.P.P.P.|
*
00409e00  00 00 00 00 00 00 00 00  00 00 00 00 00 00 00 00  |................|
*
0040a000
