# $FreeBSD: fe1dc366b2492432754f58e18135079679506d91 $
# Height: 16
# Width: 8
0000:00000000000000000000000000000000
0020:00000000000000000000000000000000
0021:0000183C3C3C18181800181800000000
0022:00666666240000000000000000000000
0023:0000006C6CFE6C6C6CFE6C6C00000000
0024:18187CC6C2C07C060686C67C18180000
0025:00000000C2C60C183060C68600000000
0026:0000386C6C3876DCCCCCCC7600000000
0027:00303030600000000000000000000000
0028:00000C18303030303030180C00000000
0029:000030180C0C0C0C0C0C183000000000
002A:0000000000663CFF3C66000000000000
002B:000000000018187E1818000000000000
002C:00000000000000000018181830000000
002D:00000000000000FE0000000000000000
002E:00000000000000000000181800000000
002F:0000000002060C183060C08000000000
0030:0000386CC6C6D6D6C6C66C3800000000
0031:00001838781818181818187E00000000
0032:00007CC6060C183060C0C6FE00000000
0033:00007CC606063C060606C67C00000000
0034:00000C1C3C6CCCFE0C0C0C1E00000000
0035:0000FEC0C0C0FC060606C67C00000000
0036:00003860C0C0FCC6C6C6C67C00000000
0037:0000FEC606060C183030303000000000
0038:00007CC6C6C67CC6C6C6C67C00000000
0039:00007CC6C6C67E0606060C7800000000
003A:00000000181800000018180000000000
003B:00000000181800000018183000000000
003C:000000060C18306030180C0600000000
003D:00000000007E00007E00000000000000
003E:0000006030180C060C18306000000000
003F:00007CC6C60C18181800181800000000
0040:0000007CC6C6DEDEDEDCC07C00000000
0041:000010386CC6C6FEC6C6C6C600000000
0042:0000FC6666667C66666666FC00000000
0043:00003C66C2C0C0C0C0C2663C00000000
0044:0000F86C6666666666666CF800000000
0045:0000FE6662687868606266FE00000000
0046:0000FE6662687868606060F000000000
0047:00003C66C2C0C0DEC6C6663A00000000
0048:0000C6C6C6C6FEC6C6C6C6C600000000
0049:00003C18181818181818183C00000000
004A:00001E0C0C0C0C0CCCCCCC7800000000
004B:0000E666666C78786C6666E600000000
004C:0000F06060606060606266FE00000000
004D:0000C6EEFEFED6C6C6C6C6C600000000
004E:0000C6E6F6FEDECEC6C6C6C600000000
004F:00007CC6C6C6C6C6C6C6C67C00000000
0050:0000FC6666667C60606060F000000000
0051:00007CC6C6C6C6C6C6D6DE7C0C0E0000
0052:0000FC6666667C6C666666E600000000
0053:00007CC6C660380C06C6C67C00000000
0054:00007E7E5A1818181818183C00000000
0055:0000C6C6C6C6C6C6C6C6C67C00000000
0056:0000C6C6C6C6C6C6C66C381000000000
0057:0000C6C6C6C6D6D6D6FEEE6C00000000
0058:0000C6C66C7C38387C6CC6C600000000
0059:0000666666663C181818183C00000000
005A:0000FEC6860C183060C2C6FE00000000
005B:00003C30303030303030303C00000000
005C:00000080C0E070381C0E060200000000
005D:00003C0C0C0C0C0C0C0C0C3C00000000
005E:10386CC6000000000000000000000000
005F:00000000000000000000000000FF0000
0060:30301800000000000000000000000000
0061:0000000000780C7CCCCCCC7600000000
0062:0000E06060786C666666667C00000000
0063:00000000007CC6C0C0C0C67C00000000
0064:00001C0C0C3C6CCCCCCCCC7600000000
0065:00000000007CC6FEC0C0C67C00000000
0066:0000386C6460F060606060F000000000
0067:000000000076CCCCCCCCCC7C0CCC7800
0068:0000E060606C7666666666E600000000
0069:00001818003818181818183C00000000
006A:00000606000E06060606060666663C00
006B:0000E06060666C78786C66E600000000
006C:00003818181818181818183C00000000
006D:0000000000ECFED6D6D6D6C600000000
006E:0000000000DC66666666666600000000
006F:00000000007CC6C6C6C6C67C00000000
0070:0000000000DC66666666667C6060F000
0071:000000000076CCCCCCCCCC7C0C0C1E00
0072:0000000000DC7666606060F000000000
0073:00000000007CC660380CC67C00000000
0074:0000103030FC30303030361C00000000
0075:0000000000CCCCCCCCCCCC7600000000
0076:000000000066666666663C1800000000
0077:0000000000C6C6D6D6D6FE6C00000000
0078:0000000000C66C3838386CC600000000
0079:0000000000C6C6C6C6C6C67E060CF800
007A:0000000000FECC183060C6FE00000000
007B:00000E18181870181818180E00000000
007C:00001818181800181818181800000000
007D:0000701818180E181818187000000000
007E:000076DC000000000000000000000000
00A0:00000000000000000000000000000000
00A1:00001818001818183C3C3C1800000000
00A2:0018183C66606060663C181800000000
00A3:00386C6460F060606060E6FC00000000
00A4:00000082C67CC6C6C6C67CC682000000
00A5:000066663C187E187E18181800000000
00A6:00001818181800181818181800000000
00A7:007CC660386CC6C66C380CC67C000000
00A8:00C60000000000000000000000000000
00A9:00007CC682BAA2A2BA82C67C00000000
00AA:003C6C6C3E007E000000000000000000
00AB:0000000000366CD86C36000000000000
00AC:000000000000FE060606060000000000
00AD:000000000000007C0000000000000000
00AE:00007CC682BAAAB2AA82C67C00000000
00AF:00FE0000000000000000000000000000
00B0:00386C6C380000000000000000000000
00B1:0000000018187E18180000FF00000000
00B2:0070D83060C8F8000000000000000000
00B3:00F8183018D870000000000000000000
00B4:18306000000000000000000000000000
00B5:0000000066666666667C6060C0000000
00B6:00007FDBDBDB7B1B1B1B1B1B00000000
00B7:00000000000000001800000000000000
00B8:00000000000000000000180C063C0000
00B9:0060E0606060F0000000000000000000
00BA:00386C6C38007C000000000000000000
00BB:0000000000D86C366CD8000000000000
00BC:00C0C0C2C6CC183066CE9E3E06060000
00BD:00C0C0C2C6CC183060DC860C183E0000
00BE:00F0307236EC183066CE963E06060000
00BF:0000303000303060C0C6C67C00000000
00C0:60301800386CC6C6FEC6C6C600000000
00C1:0C183000386CC6C6FEC6C6C600000000
00C2:10386C00386CC6C6FEC6C6C600000000
00C3:0076DC00386CC6C6FEC6C6C600000000
00C4:00C60010386CC6C6FEC6C6C600000000
00C5:386C3800386CC6C6FEC6C6C600000000
00C6:00003E6CCCCCFECCCCCCCCCE00000000
00C7:00003C66C2C0C0C0C2663C0C067C0000
00C8:30180C00FE66607C606066FE00000000
00C9:18306000FE66607C606066FE00000000
00CA:10386C00FE66607C606066FE00000000
00CB:00C600FE6660607C606066FE00000000
00CC:30180C003C1818181818183C00000000
00CD:0C1830003C1818181818183C00000000
00CE:183C66003C1818181818183C00000000
00CF:0066003C181818181818183C00000000
00D0:0000786C666666F666666C7800000000
00D1:76DC00C6E6F6FEDECEC6C6C600000000
00D2:603018007CC6C6C6C6C6C67C00000000
00D3:0C1830007CC6C6C6C6C6C67C00000000
00D4:10386C007CC6C6C6C6C6C67C00000000
00D5:76DC007CC6C6C6C6C6C6C67C00000000
00D6:00C6007CC6C6C6C6C6C6C67C00000000
00D7:00000000C66C3810386CC60000000000
00D8:02067CCECEDED6D6F6E6E67CC0800000
00D9:60301800C6C6C6C6C6C6C67C00000000
00DA:0C183000C6C6C6C6C6C6C67C00000000
00DB:10386C00C6C6C6C6C6C6C67C00000000
00DC:00C600C6C6C6C6C6C6C6C67C00000000
00DD:0C183000C3C3663C1818183C00000000
00DE:F0607C6666667C60606060F000000000
00DF:000078CCCCCCD8CCC6C6C6CC00000000
00E0:0060301800780C7CCCCCCC7600000000
00E1:0018306000780C7CCCCCCC7600000000
00E2:0010386C00780C7CCCCCCC7600000000
00E3:000076DC00780C7CCCCCCC7600000000
00E4:0000CC0000780C7CCCCCCC7600000000
00E5:00386C3800780C7CCCCCCC7600000000
00E6:0000000000CC76367ED8D86E00000000
00E7:000000003C666060663C0C063C000000
00E8:00603018007CC6FEC0C0C67C00000000
00E9:000C1830007CC6FEC0C0C67C00000000
00EA:0010386C007CC6FEC0C0C67C00000000
00EB:0000C600007CC6FEC0C0C67C00000000
00EC:00603018003818181818183C00000000
00ED:000C1830003818181818183C00000000
00EE:00183C66003818181818183C00000000
00EF:00006600003818181818183C00000000
00F0:006C38386C0C3C6CCCCCCC7800000000
00F1:000076DC00DC66666666666600000000
00F2:00603018007CC6C6C6C6C67C00000000
00F3:00183060007CC6C6C6C6C67C00000000
00F4:0010386C007CC6C6C6C6C67C00000000
00F5:000076DC007CC6C6C6C6C67C00000000
00F6:0000C600007CC6C6C6C6C67C00000000
00F7:000000001818007E0018180000000000
00F8:00000002067CCEDED6F6E67CC0800000
00F9:0060301800CCCCCCCCCCCC7600000000
00FA:0018306000CCCCCCCCCCCC7600000000
00FB:003078CC00CCCCCCCCCCCC7600000000
00FC:0000CC0000CCCCCCCCCCCC7600000000
00FD:0018306000C6C6C6C6C6C67E060CF800
00FE:000000F0607C66666666667C6060F000
00FF:0000C60000C6C6C6C6C6C67E060C7800
0100:007C00386CC6C6C6FEC6C6C6C6000000
0101:000000007C00780C7CCCCCCC76000000
0102:C67C0010386CC6C6FEC6C6C600000000
0103:0000C67C00780C7CCCCCCC7600000000
0104:000010386CC6C6FEC6C6C6C618301E00
0105:0000000000780C7CCCCCCC7618301E00
0106:0C18003C66C2C0C0C0C2663C00000000
0107:000C1830007CC6C0C0C0C67C00000000
010C:6C38003C66C2C0C0C0C2663C00000000
010D:00006C38007CC6C0C0C0C67C00000000
010E:6C3800F86C66666666666CF800000000
010F:6C38001C0C0C3C6CCCCCCC7600000000
0110:0000F86C6666F66666666CF800000000
0111:00000C0C7E0C3C6CCCCCCC7600000000
0112:7C0000FE6660607C60606066FE000000
0113:000000007C007CC6C6FEC0C67C000000
0116:181800FE6660607860606066FE000000
0117:0000103810007CC6C6FEC0C67C000000
0118:0000FE6662687868606266FE18301E00
0119:00000000007CC6FEC0C0C67C30603C00
011A:6C3800FE66626878686266FE00000000
011B:00006C38007CC6FEC0C0C67C00000000
011E:423C003C66C2C0DEC6C6663A00000000
011F:000044380076CCCCCCCCCC7C0CCC7800
0122:0000007CC6C6C0C0CECEC6C67C0C7800
0123:00003C60300076CEC6C6C6CE7606FC00
0128:76DC003C18181818181818183C000000
0129:00000076DC003818181818183C000000
012A:003C003C18181818181818183C000000
012B:000000007C003818181818183C000000
012E:0000003C18181818181818183C301E00
012F:0000001818003818181818183C301C00
0130:000018003C1818181818183C00000000
0131:00000000003818181818183C00000000
0136:000000C6C6CCD8F0F0D8CCC6C60C7800
0137:000000E0606066666C786C66E618F000
0138:000000000000E66C78786C66E6000000
0139:0000F66C60606060606266FE00000000
013A:0000E66C60606060606060F000000000
013B:000000F06060606060606266FE0C7800
013C:0000003818181818181818183C0C7800
013D:001BEE6060606060606266FE00000000
013E:001BEE6060606060606060F000000000
0141:0000F0646C7870E0E06266FE00000000
0142:0000381A1E1C18387858183C00000000
0143:0C1800C6E6F6FEDECEC6C6C600000000
0144:000C183000DC66666666666600000000
0145:000000C6C6E6F6FEDECEC6C6C60C7800
0146:000000000000DC6666666666660C7800
0147:6C3800C6E6F6FEDECEC6C6C600000000
0148:00006C3800DC66666666666600000000
014A:000000DCFEE6C6C6C6C6C6C6DC000000
014B:0000000000DCFEE6C6C6C6061C000000
014C:007C007CC6C6C6C6C6C6C6C67C000000
014D:000000007C007CC6C6C6C6C67C000000
0150:366C007CC6C6C6C6C6C6C67C00000000
0151:0000366C007CC6C6C6C6C67C00000000
0152:00007ECCCCCCCECCCCCCCC7E00000000
0153:00000000006EDBDBDED8DC6700000000
0154:0C1800FC6666667C6C6666E600000000
0155:000C183000DC7666606060F000000000
0156:000000FC6666667C786C6666F618F000
0157:000000000000DC6660606060F018F000
0158:6C3800FC6666667C6C6666E600000000
0159:00006C3800DC7666606060F000000000
015A:0C18007CC6C660380CC6C67C00000000
015B:000C1830007CC660380CC67C00000000
015E:00007CC6C660380C06C6C67C180C7800
015F:00000000007CC660380CC67C180C7800
0160:6C38007CC6C660380CC6C67C00000000
0161:00006C38007CC660380CC67C00000000
0162:00007E7E5A1818181818183C180C7800
0163:0000103030FC30303030361C180C7800
0164:361C007E7E5A18181818183C00000000
0165:6C3800103030FC303030361C00000000
0166:000000FFDB99181E3C7818183C000000
0167:000000303030FC303C78F0361C000000
0168:76DC00C6C6C6C6C6C6C6C6C67C000000
0169:00000076DC00CCCCCCCCCCCC76000000
016A:007C00C6C6C6C6C6C6C6C6C67C000000
016B:00000000FC00CCCCCCCCCCCC76000000
016E:386C38C6C6C6C6C6C6C6C67C00000000
016F:00386C3800CCCCCCCCCCCC7600000000
0170:366C00C6C6C6C6C6C6C6C67C00000000
0171:0000366C00CCCCCCCCCCCC7600000000
0172:000000C6C6C6C6C6C6C6C6C67C603C00
0173:000000000000CCCCCCCCCCCC76603C00
0178:00C300C3C3663C181818183C00000000
0179:0C1800FEC68C183060C2C6FE00000000
017A:000C183000FECC183060C6FE00000000
017B:181800FEC68C183060C2C6FE00000000
017C:0000181800FECC183060C6FE00000000
017D:6C3800FEC68C183060C2C6FE00000000
017E:00006C3800FECC183060C6FE00000000
0192:000E1B1818187E1818181818D8700000
02C7:006C3800000000000000000000000000
02D8:00C67C00000000000000000000000000
02D9:00181800000000000000000000000000
02DB:00000000000000000000000030603C00
02DD:00366CD8000000000000000000000000
037A:00000000000000000000000000000000
0384:060C1800000000000000000000000000
0385:060C18C3000000000000000000000000
0386:00C090B86CC6C6FEC6C6C6C600000000
0388:0000BFB130303E303031313F00000000
0389:0000B3B333333F333333330000000000
038A:0000BC98181818181818183C00000000
038C:00009EB33333333333331E0000000000
038E:0000B3B333331E0C0C0C0C1E00000000
038F:00009EB3212121212133123300000000
0390:0C080066001818181818180E00000000
0391:000010386CC6C6FEC6C6C6C600000000
0392:0000FC6666667C66666666FC00000000
0393:0000FEC6C6C0C0C0C0C0C0C000000000
0394:000010386CC6C6C6C6C6C6FE00000000
0395:0000FE6662687868606266FE00000000
0396:0000FEC6860C183060C2C6FE00000000
0397:0000C6C6C6C6FEC6C6C6C6C600000000
0398:000000386CC6C6FEC6C66C3800000000
0399:00003C18181818181818183C00000000
039A:0000E666666C78786C6666E600000000
039B:000010386CC6C6C6C6C6C6C600000000
039C:0000C6EEFEFED6C6C6C6C6C600000000
039D:0000C6E6F6FEDECEC6C6C6C600000000
039E:0000FE8200007C00000082FE00000000
039F:00007CC6C6C6C6C6C6C6C67C00000000
03A0:0000FEC6C6C6C6C6C6C6C6C600000000
03A1:0000FC6666667C60606060F000000000
03A3:000000FEC66030183060C6FE00000000
03A4:00007E7E5A1818181818183C00000000
03A5:0000666666663C181818183C00000000
03A6:0000007E183C6666663C187E00000000
03A7:0000C6C66C7C38387C6CC6C600000000
03A8:000018DBDBDBDBDB7E18183C00000000
03A9:0000386CC6C6C66C6C6C6CEE00000000
03AA:00C31818181818181818181800000000
03AB:C300666666663C181818183C00000000
03AC:00003810007BCECCCCCCCC7B00000000
03AD:00003810007CC6C078C0C67C00000000
03AE:0000381000DC66666666666606060600
03AF:00003810001818181818180E00000000
03B0:0018C30000E766666666663C00000000
03B1:000000000076DCD8D8D8DC7600000000
03B2:00007CC6C6C6C6FCC6C6C6FCC0C0C000
03B3:0000000000C3663C183C6642663C0000
03B4:00001E30180C3E666666663C00000000
03B5:00001C3060607C606060301C00000000
03B6:0000FC0C183060C0C0C0C0780C0C7800
03B7:0000000000DC66666666666606060600
03B8:00003E6363637F636363633E00000000
03B9:00000000001818181818180E00000000
03BA:0000000000E66C78786C66E600000000
03BB:0000386C0C0C0C366666666600000000
03BC:00000000006666666666667F60606000
03BD:000000000082C6C66C6C383800000000
03BE:0000FC60C0783060C0C0C07C06063C00
03BF:00000000007CC6C6C6C6C67C00000000
03C0:00000000FE6C6C6C6C6C6C6C00000000
03C1:00000000003C66666666667C60606000
03C2:00000000003E63C0C060380CC67C0000
03C3:00000000007ED8D8D8D8D87000000000
03C4:0000000076DC18181818181800000000
03C5:0000000000E766666666663C00000000
03C6:00000003067EDBDBF37E60C000000000
03C7:0000000000C66C3838386CC600000000
03C8:0000000000D6D6D6D6D6D67C10101000
03C9:000000000066C3C3C3DBFF6600000000
03CA:0000C300001818181818180E00000000
03CB:0000C30000E766666666663C00000000
03CC:00003810007CC6C6C6C6C67C00000000
03CD:0000381000E766666666663C00000000
03CE:000038100066C3C3C3DBFF6600000000
0401:666600FEC6C0C0F0C0C0C6FE00000000
0402:0000F86060607C666666666C00000000
0403:1830007E606060606060606000000000
0404:00003C66C0C0F8C0C0C0663C00000000
0405:00007CC6C660380C06C6C67C00000000
0406:0018003C181818181818183C00000000
0407:0066003C181818181818183C00000000
0408:00001E0C0C0C0C0CCCCCCC7800000000
0409:0000183878D8D8DEDBDBDBDE00000000
040A:0000D8D8D8D8D8FEDBDBDBDE00000000
040B:0000FC3030303C363636363600000000
040C:183000C6CCD8F0F8CCC6C6C600000000
040E:281000C6C6C6C67E0606C67C00000000
040F:0000C6C6C6C6C6C6C6FE383800000000
0410:00003E66C6C6C6FEC6C6C6C600000000
0411:0000FEC0C0C0FCC6C6C6C6FC00000000
0412:0000FCC6C6C6FCC6C6C6C6FC00000000
0413:0000FEC6C0C0C0C0C0C0C0C000000000
0414:00003C6C6C6C6C6C6C6C6CFEC6820000
0415:0000FEC6C0C0F0C0C0C0C6FE00000000
0416:0000D6D6D6547CD6D6D6D6D600000000
0417:00007CC606061C0606C6C67C00000000
0418:0000C6C6C6C6CEDEF6E6C6C600000000
0419:000CDAC6C6C6CEDEF6E6C6C600000000
041A:0000C6CCD8F0F0D8CCC6C6C600000000
041B:00001E3666C6C6C6C6C6C6C600000000
041C:0000C6C6EEEEFEFED6D6C6C600000000
041D:0000C6C6C6C6FEC6C6C6C6C600000000
041E:00007EC6C6C6C6C6C6C6C6FC00000000
041F:0000FEC6C6C6C6C6C6C6C6C600000000
0420:0000FCC6C6C6C6C6FCC0C0C000000000
0421:00007CC6C6C0C0C0C0C6C67C00000000
0422:00007E7E5A1818181818181800000000
0423:0000C6C6C6C6C6C67E06C67C00000000
0424:00007CD6D6D6D6D6D67C103800000000
0425:0000C6C66C38386CC6C6C6C600000000
0426:0000CCCCCCCCCCCCCCCCCCFE02060400
0427:0000C6C6C6C6C67E0606060600000000
0428:0000D6D6D6D6D6D6D6D6D6FE00000000
0429:0000D6D6D6D6D6D6D6D6D6FE02060400
042A:0000E0E060607C666666667C00000000
042B:0000C6C6C6C6E6B6B6B6B6E600000000
042C:0000C0C0C0C0FCC6C6C6C6FC00000000
042D:000078CC06061E1E0606CC7800000000
042E:00009CB6B6B6F6B6B6B6B69C00000000
042F:00007EC6C6C6C67E3666C6C600000000
0430:00000000007CC6C6C6FEC6C600000000
0431:0000000000FEC0FCC6C6C6FC00000000
0432:0000000000FCC6C6FCC6C6FC00000000
0433:0000000000FEC6C2C0C0C0C000000000
0434:00000000003C6C6C6C6C6CFEC6820000
0435:00000000007CC6C6FCC0C67C00000000
0436:0000000000D6D6D67CD6D6D600000000
0437:00000000007CC6061C06C67C00000000
0438:0000000000C6C6CEDEF6E6C600000000
0439:0000000C18C6C6CEDEF6E6C600000000
043A:0000000000C6CCD8F8D8CCC600000000
043B:00000000003E6666666666C600000000
043C:0000000000C6EEFED6C6C6C600000000
043D:0000000000C6C6C6FEC6C6C600000000
043E:00000000007EC6C6C6C6C6FC00000000
043F:0000000000FEC6C6C6C6C6C600000000
0440:0000000000FCC6C6C6C6C6FCC0C0C000
0441:00000000007CC6C0C0C2C67C00000000
0442:00000000007E5A181818181800000000
0443:0000000000C6C6C6C6C6C67E06C67C00
0444:00000000107CD6D6D6D6D67C10380000
0445:0000000000C66C38386CC6C600000000
0446:0000000000CCCCCCCCCCCCFE060C0000
0447:0000000000C6C6C6C67E060600000000
0448:0000000000D6D6D6D6D6D6FE00000000
0449:0000000000D6D6D6D6D6D6FE02060400
044A:0000000000E0607C6666667C00000000
044B:0000000000C6C6E6B6B6B6E600000000
044C:0000000000C0C0FCC6C6C6FC00000000
044D:00000000007CC6061E06C67C00000000
044E:00000000009CB6B6F6B6B69C00000000
044F:00000000007EC6C67E3666C600000000
0451:00006C6C007CC6C6FCC0C67C00000000
0452:0000606060F8607C666666660C000000
0453:00001830007C60606060606000000000
0454:00000000007CC6C0F0C0C67C00000000
0455:00000000007CC660380CC67C00000000
0456:00001010003818181818183C00000000
0457:00002828003818181818183C00000000
0458:00000404000E06060606060666663C00
0459:0000000000183878DEDBDBDE00000000
045A:0000000000D8D8D8FEDBDBDE00000000
045B:0000303030FC303C3636363600000000
045C:0000183000C4CCD8F0D8CCCC00000000
045E:0000281000C6C6C6C6C6C67E06C67C00
045F:0000000000C6C6C6C6FE383800000000
05D0:00000000C6C66676DCCCC6C600000000
05D1:00000000F80C0C0C0C0C0CFE00000000
05D2:00000000380C0C0C0C1C36E600000000
05D3:00000000FE0C0C0C0C0C0C0C00000000
05D4:00000000FC060606C6C6C6C600000000
05D5:00000000701818181818181800000000
05D6:00000000FC3030301818306000000000
05D7:00000000FC66C6C6C6C6C6C600000000
05D8:00000000CCD6D6C6C6C6C67C00000000
05D9:00000000701818183000000000000000
05DA:00000000FC0606060C0C0C0C0C0C0E00
05DB:00000000FC060606060606FC00000000
05DC:0000C0C0FC060606060C181800000000
05DD:00000000FC66C6C6C6C6C6FE00000000
05DE:00000000DC7666C6C6C6C6DE00000000
05DF:00000000380C0C181818181818181C00
05E0:00000000380C0C0C0C0C0C7C00000000
05E1:00000000FC66C6C6C6C6CC7800000000
05E2:00000000EE66666666662CF800000000
05E3:00000000F84CCCCCEC0C0C0C0C0C0E00
05E4:00000000FC46C6C6E60606FE00000000
05E5:00000000EE66666C7860606060607000
05E6:00000000EE666634180C06FE00000000
05E7:00000000FC060666646C6E6060606000
05E8:00000000FC0606060606060600000000
05E9:00000000D6D6D6D6D6F6C67C00000000
05EA:00000000FC6666666666E6E600000000
200E:00000000000000000000000000000000
200F:00000000000000000000000000000000
2015:00000000000000FF0000000000000000
2017:000000000000000000000000FF00FF00
2018:00306060300000000000000000000000
2019:000C06060C0000000000000000000000
2022:000000000000183C3C18000000000000
203C:00006666666666666600666600000000
207F:00D86C6C6C6C6C000000000000000000
20A7:00F8CCCCF8C4CCDECCCCCCC600000000
20AC:00000000000000000000000000000000
20AF:00000000000000000000000000000000
2116:0000888ACDEAB8988B888B8800000000
2190:00000000003060FE6030000000000000
2191:0000183C7E1818181818181800000000
2192:0000000000180CFE0C18000000000000
2193:0000181818181818187E3C1800000000
2194:0000000000286CFE6C28000000000000
2195:0000183C7E1818187E3C180000000000
21A8:0000183C7E1818187E3C187E00000000
2219:00000000000000181800000000000000
221A:000F0C0C0C0C0CEC6C6C3C1C00000000
221E:00000000007EDBDBDB7E000000000000
221F:000000000000C0C0C0FE000000000000
2229:0000007CC6C6C6C6C6C6C6C600000000
2248:000000000076DC0076DC000000000000
2261:00000000FE0000FE0000FE0000000000
2264:0000000C18306030180C007E00000000
2265:00000030180C060C1830007E00000000
2302:0000000010386CC6C6C6FE0000000000
2310:000000000000FEC0C0C0C00000000000
2320:00000E1B1B1818181818181818181818
2321:1818181818181818D8D8D87000000000
2500:00000000000000FF0000000000000000
2502:18181818181818181818181818181818
250C:000000000000001F1818181818181818
2510:00000000000000F81818181818181818
2514:181818181818181F0000000000000000
2518:18181818181818F80000000000000000
251C:181818181818181F1818181818181818
2524:18181818181818F81818181818181818
252C:00000000000000FF1818181818181818
2534:18181818181818FF0000000000000000
253C:18181818181818FF1818181818181818
2550:0000000000FF00FF0000000000000000
2551:36363636363636363636363636363636
2552:00000000001F181F1818181818181818
2553:000000000000003F3636363636363636
2554:00000000003F30373636363636363636
2555:0000000000F818F81818181818181818
2556:00000000000000FE3636363636363636
2557:0000000000FE06F63636363636363636
2558:18181818181F181F0000000000000000
2559:363636363636363F0000000000000000
255A:363636363637303F0000000000000000
255B:1818181818F818F80000000000000000
255C:36363636363636FE0000000000000000
255D:3636363636F606FE0000000000000000
255E:18181818181F181F1818181818181818
255F:36363636363636373636363636363636
2560:36363636363730373636363636363636
2561:1818181818F818F81818181818181818
2562:36363636363636F63636363636363636
2563:3636363636F606F63636363636363636
2564:0000000000FF00FF1818181818181818
2565:00000000000000FF3636363636363636
2566:0000000000FF00F73636363636363636
2567:1818181818FF00FF0000000000000000
2568:36363636363636FF0000000000000000
2569:3636363636F700FF0000000000000000
256A:1818181818FF18FF1818181818181818
256B:36363636363636FF3636363636363636
256C:3636363636F700F73636363636363636
2580:FFFFFFFFFFFFFF000000000000000000
2584:00000000000000FFFFFFFFFFFFFFFFFF
2588:FFFFFFFFFFFFFFFFFFFFFFFFFFFFFFFF
258C:F0F0F0F0F0F0F0F0F0F0F0F0F0F0F0F0
2590:0F0F0F0F0F0F0F0F0F0F0F0F0F0F0F0F
2591:11441144114411441144114411441144
2592:55AA55AA55AA55AA55AA55AA55AA55AA
2593:DD77DD77DD77DD77DD77DD77DD77DD77
25A0:000000007C7C7C7C7C7C7C0000000000
25AC:0000000000000000FEFEFEFE00000000
25B2:000000001038387C7CFEFE0000000000
25BA:0080C0E0F0F8FEF8F0E0C08000000000
25BC:00000000FEFE7C7C3838100000000000
25C4:0002060E1E3EFE3E1E0E060200000000
25CB:00000000003C664242663C0000000000
25D8:FFFFFFFFFFFFE7C3C3E7FFFFFFFFFFFF
25D9:FFFFFFFFFFC399BDBD99C3FFFFFFFFFF
263A:00007E81A58181BD9981817E00000000
263B:00007EFFDBFFFFC3E7FFFF7E00000000
263C:0000001818DB3CE73CDB181800000000
2640:00003C666666663C187E181800000000
2642:00001E0E1A3278CCCCCCCC7800000000
2660:000000183C7EFFFF7E18183C00000000
2663:000000183C3CE7E7E718183C00000000
2665:000000006CFEFEFEFE7C381000000000
2666:0000000010387CFE7C38100000000000
266A:00003F333F3030303070F0E000000000
266C:00007F637F6363636367E7E6C0000000
