%!PS-Adobe-2.0 EPSF-2.0
%%Title: fig3.eps
%%Creator: fig2dev Version 3.2 Patchlevel 3d
%%CreationDate: $FreeBSD: 997282374dcfba514937af0acdff59610a5ab74b $
%%For: phk@critter.freebsd.dk (Poul-Henning Kamp)
%%BoundingBox: 0 0 181 56
%%Magnification: 1.0000
%%EndComments
/$F2psDict 200 dict def
$F2psDict begin
$F2psDict /mtrx matrix put
/col-1 {0 setgray} bind def
/col0 {0.000 0.000 0.000 srgb} bind def
/col1 {0.000 0.000 1.000 srgb} bind def
/col2 {0.000 1.000 0.000 srgb} bind def
/col3 {0.000 1.000 1.000 srgb} bind def
/col4 {1.000 0.000 0.000 srgb} bind def
/col5 {1.000 0.000 1.000 srgb} bind def
/col6 {1.000 1.000 0.000 srgb} bind def
/col7 {1.000 1.000 1.000 srgb} bind def
/col8 {0.000 0.000 0.560 srgb} bind def
/col9 {0.000 0.000 0.690 srgb} bind def
/col10 {0.000 0.000 0.820 srgb} bind def
/col11 {0.530 0.810 1.000 srgb} bind def
/col12 {0.000 0.560 0.000 srgb} bind def
/col13 {0.000 0.690 0.000 srgb} bind def
/col14 {0.000 0.820 0.000 srgb} bind def
/col15 {0.000 0.560 0.560 srgb} bind def
/col16 {0.000 0.690 0.690 srgb} bind def
/col17 {0.000 0.820 0.820 srgb} bind def
/col18 {0.560 0.000 0.000 srgb} bind def
/col19 {0.690 0.000 0.000 srgb} bind def
/col20 {0.820 0.000 0.000 srgb} bind def
/col21 {0.560 0.000 0.560 srgb} bind def
/col22 {0.690 0.000 0.690 srgb} bind def
/col23 {0.820 0.000 0.820 srgb} bind def
/col24 {0.500 0.190 0.000 srgb} bind def
/col25 {0.630 0.250 0.000 srgb} bind def
/col26 {0.750 0.380 0.000 srgb} bind def
/col27 {1.000 0.500 0.500 srgb} bind def
/col28 {1.000 0.630 0.630 srgb} bind def
/col29 {1.000 0.750 0.750 srgb} bind def
/col30 {1.000 0.880 0.880 srgb} bind def
/col31 {1.000 0.840 0.000 srgb} bind def

end
save
newpath 0 56 moveto 0 0 lineto 181 0 lineto 181 56 lineto closepath clip newpath
-16.7 81.0 translate
1 -1 scale

/cp {closepath} bind def
/ef {eofill} bind def
/gr {grestore} bind def
/gs {gsave} bind def
/sa {save} bind def
/rs {restore} bind def
/l {lineto} bind def
/m {moveto} bind def
/rm {rmoveto} bind def
/n {newpath} bind def
/s {stroke} bind def
/sh {show} bind def
/slc {setlinecap} bind def
/slj {setlinejoin} bind def
/slw {setlinewidth} bind def
/srgb {setrgbcolor} bind def
/rot {rotate} bind def
/sc {scale} bind def
/sd {setdash} bind def
/ff {findfont} bind def
/sf {setfont} bind def
/scf {scalefont} bind def
/sw {stringwidth} bind def
/tr {translate} bind def
/tnt {dup dup currentrgbcolor
  4 -2 roll dup 1 exch sub 3 -1 roll mul add
  4 -2 roll dup 1 exch sub 3 -1 roll mul add
  4 -2 roll dup 1 exch sub 3 -1 roll mul add srgb}
  bind def
/shd {dup dup currentrgbcolor 4 -2 roll mul 4 -2 roll mul
  4 -2 roll mul srgb} bind def
/$F2psBegin {$F2psDict begin /$F2psEnteredState save def} def
/$F2psEnd {$F2psEnteredState restore end} def

$F2psBegin
10 setmiterlimit
 0.06000 0.06000 sc
%
% Fig objects follow
%
% Polyline
7.500 slw
gs  clippath
1740 780 m 1740 720 l 1588 720 l 1708 750 l 1588 780 l cp
eoclip
n 1200 750 m
 1725 750 l gs col0 s gr gr

% arrowhead
n 1588 780 m 1708 750 l 1588 720 l  col0 s
% Arc
n 900.0 750.0 150.0 180.0 0.0 arcn
gs col0 s gr

% Polyline
15.000 slw
n 300 450 m 1200 450 l 1200 1050 l 300 1050 l
 cp gs col0 s gr 
% Arc
7.500 slw
n 600.0 750.0 150.0 180.0 0.0 arc
gs col0 s gr

% Polyline
15.000 slw
n 1725 600 m 3225 600 l 3225 900 l 1725 900 l
 cp gs col0 s gr 
/Times-Roman ff 180.00 scf sf
1725 1350 m
gs 1 -1 sc (Oscillator + Counter = Clock) dup sw pop 2 div neg 0 rm  col0 sh gr
/Helvetica-Bold ff 180.00 scf sf
2475 825 m
gs 1 -1 sc (1 0 3 7 5 4 2 5 0 0) dup sw pop 2 div neg 0 rm  col0 sh gr
$F2psEnd
rs
