%!PS-Adobe-2.0 EPSF-2.0
%%Title: _.ps
%%Creator: gnuplot 3.7 patchlevel 1
%%CreationDate: $FreeBSD: aaaae8173f7f94dd6ee6c0b1f6df85ec0b4b45bd $
%%DocumentFonts: (atend)
%%BoundingBox: 50 50 266 201
%%Orientation: Portrait
%%EndComments
/gnudict 256 dict def
gnudict begin
/Color false def
/Solid false def
/gnulinewidth 5.000 def
/userlinewidth gnulinewidth def
/vshift -46 def
/dl {10 mul} def
/hpt_ 31.5 def
/vpt_ 31.5 def
/hpt hpt_ def
/vpt vpt_ def
/M {moveto} bind def
/L {lineto} bind def
/R {rmoveto} bind def
/V {rlineto} bind def
/vpt2 vpt 2 mul def
/hpt2 hpt 2 mul def
/Lshow { currentpoint stroke M
  0 vshift R show } def
/Rshow { currentpoint stroke M
  dup stringwidth pop neg vshift R show } def
/Cshow { currentpoint stroke M
  dup stringwidth pop -2 div vshift R show } def
/UP { dup vpt_ mul /vpt exch def hpt_ mul /hpt exch def
  /hpt2 hpt 2 mul def /vpt2 vpt 2 mul def } def
/DL { Color {setrgbcolor Solid {pop []} if 0 setdash }
 {pop pop pop Solid {pop []} if 0 setdash} ifelse } def
/BL { stroke userlinewidth 2 mul setlinewidth } def
/AL { stroke userlinewidth 2 div setlinewidth } def
/UL { dup gnulinewidth mul /userlinewidth exch def
      10 mul /udl exch def } def
/PL { stroke userlinewidth setlinewidth } def
/LTb { BL [] 0 0 0 DL } def
/LTa { AL [1 udl mul 2 udl mul] 0 setdash 0 0 0 setrgbcolor } def
/LT0 { PL [] 1 0 0 DL } def
/LT1 { PL [4 dl 2 dl] 0 1 0 DL } def
/LT2 { PL [2 dl 3 dl] 0 0 1 DL } def
/LT3 { PL [1 dl 1.5 dl] 1 0 1 DL } def
/LT4 { PL [5 dl 2 dl 1 dl 2 dl] 0 1 1 DL } def
/LT5 { PL [4 dl 3 dl 1 dl 3 dl] 1 1 0 DL } def
/LT6 { PL [2 dl 2 dl 2 dl 4 dl] 0 0 0 DL } def
/LT7 { PL [2 dl 2 dl 2 dl 2 dl 2 dl 4 dl] 1 0.3 0 DL } def
/LT8 { PL [2 dl 2 dl 2 dl 2 dl 2 dl 2 dl 2 dl 4 dl] 0.5 0.5 0.5 DL } def
/Pnt { stroke [] 0 setdash
   gsave 1 setlinecap M 0 0 V stroke grestore } def
/Dia { stroke [] 0 setdash 2 copy vpt add M
  hpt neg vpt neg V hpt vpt neg V
  hpt vpt V hpt neg vpt V closepath stroke
  Pnt } def
/Pls { stroke [] 0 setdash vpt sub M 0 vpt2 V
  currentpoint stroke M
  hpt neg vpt neg R hpt2 0 V stroke
  } def
/Box { stroke [] 0 setdash 2 copy exch hpt sub exch vpt add M
  0 vpt2 neg V hpt2 0 V 0 vpt2 V
  hpt2 neg 0 V closepath stroke
  Pnt } def
/Crs { stroke [] 0 setdash exch hpt sub exch vpt add M
  hpt2 vpt2 neg V currentpoint stroke M
  hpt2 neg 0 R hpt2 vpt2 V stroke } def
/TriU { stroke [] 0 setdash 2 copy vpt 1.12 mul add M
  hpt neg vpt -1.62 mul V
  hpt 2 mul 0 V
  hpt neg vpt 1.62 mul V closepath stroke
  Pnt  } def
/Star { 2 copy Pls Crs } def
/BoxF { stroke [] 0 setdash exch hpt sub exch vpt add M
  0 vpt2 neg V  hpt2 0 V  0 vpt2 V
  hpt2 neg 0 V  closepath fill } def
/TriUF { stroke [] 0 setdash vpt 1.12 mul add M
  hpt neg vpt -1.62 mul V
  hpt 2 mul 0 V
  hpt neg vpt 1.62 mul V closepath fill } def
/TriD { stroke [] 0 setdash 2 copy vpt 1.12 mul sub M
  hpt neg vpt 1.62 mul V
  hpt 2 mul 0 V
  hpt neg vpt -1.62 mul V closepath stroke
  Pnt  } def
/TriDF { stroke [] 0 setdash vpt 1.12 mul sub M
  hpt neg vpt 1.62 mul V
  hpt 2 mul 0 V
  hpt neg vpt -1.62 mul V closepath fill} def
/DiaF { stroke [] 0 setdash vpt add M
  hpt neg vpt neg V hpt vpt neg V
  hpt vpt V hpt neg vpt V closepath fill } def
/Pent { stroke [] 0 setdash 2 copy gsave
  translate 0 hpt M 4 {72 rotate 0 hpt L} repeat
  closepath stroke grestore Pnt } def
/PentF { stroke [] 0 setdash gsave
  translate 0 hpt M 4 {72 rotate 0 hpt L} repeat
  closepath fill grestore } def
/Circle { stroke [] 0 setdash 2 copy
  hpt 0 360 arc stroke Pnt } def
/CircleF { stroke [] 0 setdash hpt 0 360 arc fill } def
/C0 { BL [] 0 setdash 2 copy moveto vpt 90 450  arc } bind def
/C1 { BL [] 0 setdash 2 copy        moveto
       2 copy  vpt 0 90 arc closepath fill
               vpt 0 360 arc closepath } bind def
/C2 { BL [] 0 setdash 2 copy moveto
       2 copy  vpt 90 180 arc closepath fill
               vpt 0 360 arc closepath } bind def
/C3 { BL [] 0 setdash 2 copy moveto
       2 copy  vpt 0 180 arc closepath fill
               vpt 0 360 arc closepath } bind def
/C4 { BL [] 0 setdash 2 copy moveto
       2 copy  vpt 180 270 arc closepath fill
               vpt 0 360 arc closepath } bind def
/C5 { BL [] 0 setdash 2 copy moveto
       2 copy  vpt 0 90 arc
       2 copy moveto
       2 copy  vpt 180 270 arc closepath fill
               vpt 0 360 arc } bind def
/C6 { BL [] 0 setdash 2 copy moveto
      2 copy  vpt 90 270 arc closepath fill
              vpt 0 360 arc closepath } bind def
/C7 { BL [] 0 setdash 2 copy moveto
      2 copy  vpt 0 270 arc closepath fill
              vpt 0 360 arc closepath } bind def
/C8 { BL [] 0 setdash 2 copy moveto
      2 copy vpt 270 360 arc closepath fill
              vpt 0 360 arc closepath } bind def
/C9 { BL [] 0 setdash 2 copy moveto
      2 copy  vpt 270 450 arc closepath fill
              vpt 0 360 arc closepath } bind def
/C10 { BL [] 0 setdash 2 copy 2 copy moveto vpt 270 360 arc closepath fill
       2 copy moveto
       2 copy vpt 90 180 arc closepath fill
               vpt 0 360 arc closepath } bind def
/C11 { BL [] 0 setdash 2 copy moveto
       2 copy  vpt 0 180 arc closepath fill
       2 copy moveto
       2 copy  vpt 270 360 arc closepath fill
               vpt 0 360 arc closepath } bind def
/C12 { BL [] 0 setdash 2 copy moveto
       2 copy  vpt 180 360 arc closepath fill
               vpt 0 360 arc closepath } bind def
/C13 { BL [] 0 setdash  2 copy moveto
       2 copy  vpt 0 90 arc closepath fill
       2 copy moveto
       2 copy  vpt 180 360 arc closepath fill
               vpt 0 360 arc closepath } bind def
/C14 { BL [] 0 setdash 2 copy moveto
       2 copy  vpt 90 360 arc closepath fill
               vpt 0 360 arc } bind def
/C15 { BL [] 0 setdash 2 copy vpt 0 360 arc closepath fill
               vpt 0 360 arc closepath } bind def
/Rec   { newpath 4 2 roll moveto 1 index 0 rlineto 0 exch rlineto
       neg 0 rlineto closepath } bind def
/Square { dup Rec } bind def
/Bsquare { vpt sub exch vpt sub exch vpt2 Square } bind def
/S0 { BL [] 0 setdash 2 copy moveto 0 vpt rlineto BL Bsquare } bind def
/S1 { BL [] 0 setdash 2 copy vpt Square fill Bsquare } bind def
/S2 { BL [] 0 setdash 2 copy exch vpt sub exch vpt Square fill Bsquare } bind def
/S3 { BL [] 0 setdash 2 copy exch vpt sub exch vpt2 vpt Rec fill Bsquare } bind def
/S4 { BL [] 0 setdash 2 copy exch vpt sub exch vpt sub vpt Square fill Bsquare } bind def
/S5 { BL [] 0 setdash 2 copy 2 copy vpt Square fill
       exch vpt sub exch vpt sub vpt Square fill Bsquare } bind def
/S6 { BL [] 0 setdash 2 copy exch vpt sub exch vpt sub vpt vpt2 Rec fill Bsquare } bind def
/S7 { BL [] 0 setdash 2 copy exch vpt sub exch vpt sub vpt vpt2 Rec fill
       2 copy vpt Square fill
       Bsquare } bind def
/S8 { BL [] 0 setdash 2 copy vpt sub vpt Square fill Bsquare } bind def
/S9 { BL [] 0 setdash 2 copy vpt sub vpt vpt2 Rec fill Bsquare } bind def
/S10 { BL [] 0 setdash 2 copy vpt sub vpt Square fill 2 copy exch vpt sub exch vpt Square fill
       Bsquare } bind def
/S11 { BL [] 0 setdash 2 copy vpt sub vpt Square fill 2 copy exch vpt sub exch vpt2 vpt Rec fill
       Bsquare } bind def
/S12 { BL [] 0 setdash 2 copy exch vpt sub exch vpt sub vpt2 vpt Rec fill Bsquare } bind def
/S13 { BL [] 0 setdash 2 copy exch vpt sub exch vpt sub vpt2 vpt Rec fill
       2 copy vpt Square fill Bsquare } bind def
/S14 { BL [] 0 setdash 2 copy exch vpt sub exch vpt sub vpt2 vpt Rec fill
       2 copy exch vpt sub exch vpt Square fill Bsquare } bind def
/S15 { BL [] 0 setdash 2 copy Bsquare fill Bsquare } bind def
/D0 { gsave translate 45 rotate 0 0 S0 stroke grestore } bind def
/D1 { gsave translate 45 rotate 0 0 S1 stroke grestore } bind def
/D2 { gsave translate 45 rotate 0 0 S2 stroke grestore } bind def
/D3 { gsave translate 45 rotate 0 0 S3 stroke grestore } bind def
/D4 { gsave translate 45 rotate 0 0 S4 stroke grestore } bind def
/D5 { gsave translate 45 rotate 0 0 S5 stroke grestore } bind def
/D6 { gsave translate 45 rotate 0 0 S6 stroke grestore } bind def
/D7 { gsave translate 45 rotate 0 0 S7 stroke grestore } bind def
/D8 { gsave translate 45 rotate 0 0 S8 stroke grestore } bind def
/D9 { gsave translate 45 rotate 0 0 S9 stroke grestore } bind def
/D10 { gsave translate 45 rotate 0 0 S10 stroke grestore } bind def
/D11 { gsave translate 45 rotate 0 0 S11 stroke grestore } bind def
/D12 { gsave translate 45 rotate 0 0 S12 stroke grestore } bind def
/D13 { gsave translate 45 rotate 0 0 S13 stroke grestore } bind def
/D14 { gsave translate 45 rotate 0 0 S14 stroke grestore } bind def
/D15 { gsave translate 45 rotate 0 0 S15 stroke grestore } bind def
/DiaE { stroke [] 0 setdash vpt add M
  hpt neg vpt neg V hpt vpt neg V
  hpt vpt V hpt neg vpt V closepath stroke } def
/BoxE { stroke [] 0 setdash exch hpt sub exch vpt add M
  0 vpt2 neg V hpt2 0 V 0 vpt2 V
  hpt2 neg 0 V closepath stroke } def
/TriUE { stroke [] 0 setdash vpt 1.12 mul add M
  hpt neg vpt -1.62 mul V
  hpt 2 mul 0 V
  hpt neg vpt 1.62 mul V closepath stroke } def
/TriDE { stroke [] 0 setdash vpt 1.12 mul sub M
  hpt neg vpt 1.62 mul V
  hpt 2 mul 0 V
  hpt neg vpt -1.62 mul V closepath stroke } def
/PentE { stroke [] 0 setdash gsave
  translate 0 hpt M 4 {72 rotate 0 hpt L} repeat
  closepath stroke grestore } def
/CircE { stroke [] 0 setdash 
  hpt 0 360 arc stroke } def
/Opaque { gsave closepath 1 setgray fill grestore 0 setgray closepath } def
/DiaW { stroke [] 0 setdash vpt add M
  hpt neg vpt neg V hpt vpt neg V
  hpt vpt V hpt neg vpt V Opaque stroke } def
/BoxW { stroke [] 0 setdash exch hpt sub exch vpt add M
  0 vpt2 neg V hpt2 0 V 0 vpt2 V
  hpt2 neg 0 V Opaque stroke } def
/TriUW { stroke [] 0 setdash vpt 1.12 mul add M
  hpt neg vpt -1.62 mul V
  hpt 2 mul 0 V
  hpt neg vpt 1.62 mul V Opaque stroke } def
/TriDW { stroke [] 0 setdash vpt 1.12 mul sub M
  hpt neg vpt 1.62 mul V
  hpt 2 mul 0 V
  hpt neg vpt -1.62 mul V Opaque stroke } def
/PentW { stroke [] 0 setdash gsave
  translate 0 hpt M 4 {72 rotate 0 hpt L} repeat
  Opaque stroke grestore } def
/CircW { stroke [] 0 setdash 
  hpt 0 360 arc Opaque stroke } def
/BoxFill { gsave Rec 1 setgray fill grestore } def
end
%%EndProlog
gnudict begin
gsave
50 50 translate
0.050 0.050 scale
0 setgray
newpath
(Helvetica) findfont 140 scalefont setfont
1.000 UL
LTb
1.000 UL
LTa
630 420 M
3452 0 V
1.000 UL
LTb
630 420 M
63 0 V
3389 0 R
-63 0 V
546 420 M
(-20) Rshow
1.000 UL
LTa
630 826 M
3452 0 V
1.000 UL
LTb
630 826 M
63 0 V
3389 0 R
-63 0 V
546 826 M
(-15) Rshow
1.000 UL
LTa
630 1232 M
3452 0 V
1.000 UL
LTb
630 1232 M
63 0 V
3389 0 R
-63 0 V
-3473 0 R
(-10) Rshow
1.000 UL
LTa
630 1638 M
3452 0 V
1.000 UL
LTb
630 1638 M
63 0 V
3389 0 R
-63 0 V
-3473 0 R
(-5) Rshow
1.000 UL
LTa
630 2044 M
3452 0 V
1.000 UL
LTb
630 2044 M
63 0 V
3389 0 R
-63 0 V
-3473 0 R
(0) Rshow
1.000 UL
LTa
630 2450 M
3452 0 V
1.000 UL
LTb
630 2450 M
63 0 V
3389 0 R
-63 0 V
-3473 0 R
(5) Rshow
1.000 UL
LTa
630 2856 M
3452 0 V
1.000 UL
LTb
630 2856 M
63 0 V
3389 0 R
-63 0 V
-3473 0 R
(10) Rshow
1.000 UL
LTa
630 420 M
0 2436 V
1.000 UL
LTb
630 420 M
0 63 V
0 2373 R
0 -63 V
630 280 M
(0) Cshow
1.000 UL
LTa
975 420 M
0 2436 V
1.000 UL
LTb
975 420 M
0 63 V
0 2373 R
0 -63 V
975 280 M
(100) Cshow
1.000 UL
LTa
1320 420 M
0 2436 V
1.000 UL
LTb
1320 420 M
0 63 V
0 2373 R
0 -63 V
0 -2513 R
(200) Cshow
1.000 UL
LTa
1666 420 M
0 2436 V
1.000 UL
LTb
1666 420 M
0 63 V
0 2373 R
0 -63 V
0 -2513 R
(300) Cshow
1.000 UL
LTa
2011 420 M
0 2436 V
1.000 UL
LTb
2011 420 M
0 63 V
0 2373 R
0 -63 V
0 -2513 R
(400) Cshow
1.000 UL
LTa
2356 420 M
0 2436 V
1.000 UL
LTb
2356 420 M
0 63 V
0 2373 R
0 -63 V
0 -2513 R
(500) Cshow
1.000 UL
LTa
2701 420 M
0 2436 V
1.000 UL
LTb
2701 420 M
0 63 V
0 2373 R
0 -63 V
0 -2513 R
(600) Cshow
1.000 UL
LTa
3046 420 M
0 2436 V
1.000 UL
LTb
3046 420 M
0 63 V
0 2373 R
0 -63 V
0 -2513 R
(700) Cshow
1.000 UL
LTa
3392 420 M
0 2436 V
1.000 UL
LTb
3392 420 M
0 63 V
0 2373 R
0 -63 V
0 -2513 R
(800) Cshow
1.000 UL
LTa
3737 420 M
0 2373 V
0 63 V
1.000 UL
LTb
3737 420 M
0 63 V
0 2373 R
0 -63 V
0 -2513 R
(900) Cshow
1.000 UL
LTa
4082 420 M
0 2436 V
1.000 UL
LTb
4082 420 M
0 63 V
0 2373 R
0 -63 V
0 -2513 R
(1000) Cshow
1.000 UL
LTb
630 420 M
3452 0 V
0 2436 V
-3452 0 V
630 420 L
140 1638 M
currentpoint gsave translate 90 rotate 0 0 M
(nanoseconds) Cshow
grestore
2356 70 M
(seconds) Cshow
1.000 UL
LT0
631 2125 M
3 -81 V
4 0 V
3 -162 V
4 0 V
3 162 V
3 0 V
4 0 V
3 -244 V
4 0 V
3 244 V
4 -162 V
3 0 V
4 -163 V
3 0 V
4 163 V
3 -163 V
3 0 V
4 731 V
3 -812 V
4 162 V
3 650 V
4 -812 V
3 731 V
4 81 V
3 -731 V
4 650 V
3 -812 V
3 731 V
4 81 V
3 -731 V
4 650 V
3 0 V
4 -82 V
3 82 V
4 81 V
3 -81 V
4 0 V
3 -163 V
3 81 V
4 82 V
3 -163 V
4 0 V
3 -81 V
4 81 V
3 81 V
4 -81 V
3 0 V
3 -81 V
4 0 V
3 81 V
4 -81 V
3 0 V
4 -162 V
3 162 V
4 568 V
3 -568 V
4 0 V
3 568 V
3 -730 V
4 568 V
3 -568 V
4 0 V
3 649 V
4 -731 V
3 569 V
4 162 V
3 -812 V
4 731 V
3 81 V
3 -243 V
4 162 V
3 -731 V
4 569 V
3 81 V
4 -244 V
3 163 V
4 -731 V
3 568 V
3 0 V
4 -243 V
3 162 V
4 0 V
3 -244 V
4 82 V
3 -244 V
4 162 V
3 82 V
4 -244 V
3 81 V
3 -243 V
4 243 V
3 81 V
4 -243 V
3 81 V
4 -162 V
3 162 V
4 81 V
3 -243 V
4 81 V
3 -163 V
3 163 V
4 81 V
3 -162 V
4 81 V
3 -244 V
4 163 V
3 162 V
4 -244 V
3 82 V
3 -163 V
4 81 V
3 163 V
4 -244 V
3 81 V
4 -162 V
3 81 V
4 81 V
3 -162 V
4 0 V
3 -81 V
3 81 V
4 81 V
3 -81 V
4 0 V
3 650 V
4 -569 V
3 0 V
4 -162 V
3 162 V
4 569 V
3 -731 V
3 162 V
4 -162 V
3 81 V
4 812 V
3 0 V
4 -731 V
3 731 V
4 -893 V
3 731 V
4 0 V
3 -650 V
3 812 V
4 0 V
3 -244 V
4 82 V
3 162 V
4 -244 V
3 82 V
4 -244 V
3 81 V
3 163 V
4 -163 V
3 81 V
4 -162 V
3 0 V
4 244 V
3 -244 V
4 81 V
3 -162 V
4 81 V
3 162 V
3 -243 V
4 162 V
3 -162 V
4 0 V
3 162 V
4 -162 V
3 81 V
4 650 V
3 -812 V
4 162 V
3 650 V
3 -731 V
4 649 V
3 -812 V
4 731 V
3 163 V
4 -812 V
3 649 V
4 0 V
3 -81 V
4 162 V
3 -812 V
3 650 V
4 81 V
3 -243 V
4 162 V
3 -812 V
4 650 V
3 162 V
4 -325 V
3 81 V
4 0 V
3 -81 V
3 81 V
4 -243 V
3 162 V
4 0 V
3 -81 V
4 81 V
3 -162 V
4 162 V
3 81 V
3 -162 V
4 81 V
3 -243 V
4 243 V
3 81 V
4 -243 V
3 81 V
4 -162 V
3 162 V
4 0 V
3 -244 V
3 82 V
4 -82 V
3 82 V
4 81 V
3 -163 V
4 0 V
3 -81 V
4 81 V
3 82 V
4 -163 V
3 0 V
3 -162 V
4 162 V
3 0 V
4 -81 V
3 0 V
4 650 V
3 -569 V
4 0 V
3 -162 V
3 81 V
4 650 V
3 -731 V
4 162 V
3 569 V
4 -650 V
3 650 V
4 0 V
3 -569 V
3 569 V
4 162 V
3 -162 V
4 0 V
3 162 V
4 0 V
3 0 V
4 -162 V
3 162 V
4 0 V
3 0 V
3 0 V
4 -162 V
3 162 V
4 0 V
3 0 V
4 0 V
3 -244 V
4 244 V
3 0 V
4 -162 V
3 162 V
3 -162 V
4 162 V
3 -325 V
4 325 V
3 0 V
4 -162 V
3 162 V
4 -244 V
3 244 V
4 0 V
3 -162 V
3 162 V
4 -244 V
3 244 V
4 0 V
3 -162 V
4 162 V
3 -325 V
4 163 V
3 162 V
4 -244 V
3 82 V
3 568 V
4 -650 V
3 82 V
4 649 V
3 -731 V
4 569 V
3 162 V
4 -649 V
3 568 V
3 -731 V
4 569 V
3 162 V
4 -650 V
3 569 V
4 81 V
3 -162 V
4 81 V
3 -650 V
4 650 V
3 81 V
3 -162 V
4 0 V
3 243 V
4 -243 V
3 162 V
4 -162 V
3 0 V
4 243 V
3 -243 V
4 81 V
3 -81 V
3 0 V
4 162 V
3 -162 V
4 81 V
3 -163 V
4 0 V
3 244 V
4 -244 V
3 82 V
3 -82 V
4 0 V
3 163 V
4 -244 V
3 163 V
4 -163 V
3 0 V
4 -81 V
3 81 V
4 81 V
3 -81 V
3 0 V
4 -81 V
3 0 V
4 81 V
3 -81 V
4 -162 V
3 -163 V
4 81 V
3 82 V
4 -244 V
3 0 V
3 -162 V
4 81 V
3 81 V
4 -81 V
3 0 V
4 649 V
3 -649 V
4 0 V
3 -81 V
3 0 V
4 649 V
3 -649 V
4 0 V
3 730 V
4 -812 V
3 650 V
4 244 V
3 -812 V
4 649 V
3 -812 V
3 731 V
4 81 V
3 -731 V
4 650 V
3 81 V
4 -243 V
3 162 V
4 0 V
3 -162 V
4 162 V
3 -244 V
3 244 V
4 0 V
3 -244 V
4 82 V
3 -244 V
4 162 V
3 82 V
4 -163 V
3 81 V
4 -243 V
3 243 V
3 82 V
4 -244 V
3 81 V
4 -162 V
3 162 V
4 81 V
3 569 V
currentpoint stroke M
4 -731 V
3 731 V
3 81 V
4 -731 V
3 650 V
4 -731 V
3 650 V
4 0 V
3 -650 V
4 568 V
3 163 V
4 -163 V
3 0 V
3 163 V
4 -81 V
3 -82 V
4 -81 V
3 81 V
4 82 V
3 -163 V
4 0 V
3 -81 V
4 81 V
3 81 V
3 -162 V
4 0 V
3 0 V
4 0 V
3 81 V
4 -81 V
3 0 V
4 -162 V
3 162 V
4 0 V
3 -162 V
3 0 V
4 -163 V
3 81 V
4 82 V
3 -82 V
4 0 V
3 650 V
4 -731 V
3 163 V
3 649 V
4 -812 V
3 650 V
4 81 V
3 -650 V
4 650 V
3 -812 V
4 650 V
3 81 V
4 -731 V
3 650 V
3 81 V
4 -163 V
3 82 V
4 81 V
3 -163 V
4 82 V
3 -163 V
4 81 V
3 -162 V
4 81 V
3 163 V
3 -244 V
4 81 V
3 -81 V
4 0 V
3 81 V
4 -81 V
3 0 V
4 -244 V
3 244 V
3 0 V
4 -162 V
3 0 V
4 649 V
3 -731 V
4 82 V
3 649 V
4 -812 V
3 650 V
4 81 V
3 -731 V
3 650 V
4 81 V
3 -162 V
4 81 V
3 -731 V
4 650 V
3 0 V
4 -163 V
3 163 V
4 81 V
3 -163 V
3 0 V
4 -162 V
3 81 V
4 81 V
3 -81 V
4 0 V
3 -81 V
4 81 V
3 0 V
3 -81 V
4 0 V
3 -244 V
4 244 V
3 0 V
4 -244 V
3 0 V
4 650 V
3 -650 V
4 0 V
3 731 V
3 -812 V
4 650 V
3 162 V
4 -812 V
3 650 V
4 -812 V
3 731 V
4 162 V
3 0 V
4 -162 V
3 0 V
3 -82 V
4 163 V
3 0 V
4 -163 V
3 0 V
4 -81 V
3 163 V
4 0 V
3 -163 V
4 0 V
3 -81 V
3 81 V
4 81 V
3 -162 V
4 81 V
3 -81 V
4 0 V
3 81 V
4 -81 V
3 0 V
4 650 V
3 0 V
3 -650 V
4 650 V
3 -650 V
4 568 V
3 0 V
4 -568 V
3 650 V
4 0 V
3 -163 V
3 0 V
4 163 V
3 -163 V
4 0 V
3 -81 V
4 0 V
3 162 V
4 -162 V
3 0 V
4 -81 V
3 0 V
3 162 V
4 -325 V
3 82 V
4 -163 V
3 0 V
4 163 V
3 -244 V
4 81 V
3 -81 V
4 0 V
3 81 V
3 569 V
4 -650 V
3 487 V
4 81 V
3 -568 V
4 487 V
3 -731 V
4 650 V
3 0 V
3 -650 V
4 569 V
3 81 V
4 -162 V
3 0 V
4 162 V
3 -162 V
4 0 V
3 -82 V
4 0 V
3 163 V
3 -244 V
4 81 V
3 -162 V
4 0 V
3 162 V
4 -162 V
3 0 V
4 -162 V
3 162 V
4 81 V
3 -243 V
3 162 V
4 487 V
3 -731 V
4 82 V
3 730 V
4 -730 V
3 568 V
4 81 V
3 -731 V
3 650 V
4 81 V
3 -162 V
4 81 V
3 81 V
4 -162 V
3 81 V
4 -244 V
3 82 V
4 162 V
3 -244 V
3 82 V
4 -244 V
3 81 V
4 163 V
3 -163 V
4 81 V
3 -162 V
4 0 V
3 81 V
4 -81 V
3 0 V
3 -244 V
4 82 V
3 162 V
4 -162 V
3 0 V
4 730 V
3 -730 V
4 568 V
3 162 V
3 -812 V
4 650 V
3 162 V
4 -243 V
3 162 V
4 -812 V
3 650 V
4 81 V
3 -162 V
4 81 V
3 0 V
3 -81 V
4 81 V
3 -244 V
4 163 V
3 81 V
4 -163 V
3 82 V
4 -244 V
3 162 V
4 0 V
3 -162 V
3 0 V
4 -244 V
3 244 V
4 0 V
3 -325 V
4 0 V
3 -243 V
4 162 V
3 -81 V
4 -81 V
3 -82 V
3 731 V
4 -649 V
3 0 V
4 649 V
3 -812 V
4 731 V
3 162 V
4 -812 V
3 731 V
3 -812 V
4 731 V
3 162 V
4 -812 V
3 731 V
4 0 V
3 -81 V
4 162 V
3 -812 V
4 650 V
3 81 V
3 -81 V
4 81 V
3 0 V
4 -81 V
3 81 V
4 -243 V
3 162 V
4 162 V
3 -162 V
4 0 V
3 -244 V
3 244 V
4 0 V
3 -162 V
4 162 V
3 -244 V
4 82 V
3 162 V
4 -325 V
3 81 V
3 -162 V
4 81 V
3 163 V
4 -244 V
3 162 V
4 -162 V
3 0 V
4 244 V
3 -244 V
4 162 V
3 -162 V
3 0 V
4 244 V
3 -244 V
4 81 V
3 -81 V
4 0 V
3 162 V
4 -81 V
3 0 V
4 -81 V
3 81 V
3 81 V
4 -81 V
3 0 V
4 -81 V
3 81 V
4 163 V
3 -163 V
4 81 V
3 -162 V
3 81 V
4 650 V
3 -650 V
4 81 V
3 650 V
4 -731 V
3 731 V
4 -731 V
3 81 V
4 569 V
3 -650 V
3 650 V
4 -731 V
3 162 V
4 650 V
3 -731 V
4 650 V
3 81 V
4 -731 V
3 731 V
4 -812 V
3 650 V
3 243 V
4 -812 V
3 650 V
4 0 V
3 -81 V
4 81 V
3 81 V
4 -162 V
3 81 V
4 -244 V
3 163 V
3 0 V
4 -82 V
3 82 V
4 -244 V
3 81 V
4 0 V
3 -81 V
4 -162 V
3 -244 V
3 81 V
4 -81 V
currentpoint stroke M
3 -406 V
4 -325 V
3 0 V
4 325 V
3 0 V
4 -81 V
3 0 V
4 -81 V
3 81 V
3 0 V
4 -163 V
3 -81 V
4 -162 V
3 162 V
4 0 V
3 -81 V
4 81 V
3 -162 V
4 162 V
3 0 V
3 -162 V
4 81 V
3 -162 V
4 162 V
3 81 V
4 -243 V
3 162 V
4 -162 V
3 162 V
3 81 V
4 -162 V
3 81 V
4 812 V
3 -812 V
4 244 V
3 -163 V
4 0 V
3 731 V
4 -731 V
3 81 V
3 731 V
4 -731 V
3 731 V
4 0 V
3 -649 V
4 649 V
3 -731 V
4 731 V
3 0 V
4 -649 V
3 649 V
3 81 V
4 -162 V
3 162 V
4 -730 V
3 730 V
4 82 V
3 -163 V
4 81 V
3 -162 V
3 162 V
4 82 V
3 -163 V
4 81 V
3 -162 V
4 81 V
3 81 V
4 -81 V
3 0 V
4 -81 V
3 162 V
3 0 V
4 -81 V
3 0 V
4 -162 V
3 243 V
4 0 V
3 -81 V
4 81 V
3 -162 V
4 162 V
3 82 V
3 -244 V
4 81 V
3 569 V
4 -650 V
3 81 V
4 569 V
3 -731 V
4 731 V
3 81 V
4 -731 V
3 650 V
3 81 V
4 -81 V
3 0 V
4 -650 V
3 731 V
4 0 V
3 -163 V
4 82 V
3 162 V
3 -81 V
4 0 V
3 -163 V
4 82 V
3 81 V
4 -81 V
3 0 V
4 -163 V
3 81 V
4 82 V
3 -163 V
3 163 V
4 -244 V
3 81 V
4 81 V
3 -81 V
4 81 V
3 -162 V
4 0 V
3 81 V
4 -81 V
3 81 V
3 650 V
4 -731 V
3 81 V
4 -81 V
3 0 V
4 650 V
3 -650 V
4 0 V
3 731 V
4 -731 V
3 568 V
3 82 V
4 -163 V
3 163 V
4 81 V
3 -244 V
4 81 V
3 -162 V
4 81 V
3 81 V
3 -243 V
4 81 V
3 -162 V
4 81 V
3 81 V
4 -244 V
3 82 V
4 -163 V
3 81 V
4 82 V
3 -244 V
3 81 V
4 -243 V
3 243 V
4 81 V
3 -162 V
4 0 V
3 568 V
4 -568 V
3 0 V
4 568 V
3 -730 V
3 649 V
4 81 V
3 -812 V
4 650 V
3 -731 V
4 569 V
3 162 V
4 0 V
3 -162 V
3 81 V
4 -244 V
3 163 V
4 0 V
3 -82 V
4 82 V
3 -244 V
4 162 V
3 82 V
4 -244 V
3 81 V
3 -81 V
4 0 V
3 81 V
4 -81 V
3 0 V
4 568 V
3 -568 V
4 0 V
3 487 V
4 81 V
3 -243 V
3 162 V
4 -731 V
stroke
grestore
end
showpage
%%Trailer
%%DocumentFonts: Helvetica
